2100000, 0, 37, 0.000
2100001, 5, 33, 0.152
2100002, 2, 35, 0.057
2100003, 0, 51, 0.000
2100004, 4, 82, 0.049
2100005, 3, 44, 0.068
2100006, 1, 31, 0.032
2100007, 3, 41, 0.073
2100008, 0, 29, 0.000
2100009, 0, 71, 0.000
2100010, 2, 61, 0.033
2100011, 4, 29, 0.138
2100012, 5, 32, 0.156
2100013, 3, 50, 0.060
2100014, 2, 45, 0.044
2100015, 2, 47, 0.043
2100016, 4, 61, 0.066
2100017, 1, 68, 0.015
2100018, 1, 45, 0.022
2100019, 7, 50, 0.140
2100020, 2, 43, 0.047
2100021, 2, 36, 0.056
2100022, 4, 39, 0.103
2100023, 5, 44, 0.114
2100024, 1, 32, 0.031
2100025, 5, 39, 0.128
2100026, 8, 60, 0.133
2100027, 9, 67, 0.134
2100028, 7, 92, 0.076
2100029, 3, 45, 0.067
2100030, 4, 45, 0.089
2100031, 13, 60, 0.217
2100032, 7, 47, 0.149
2100033, 6, 71, 0.085
2100034, 6, 64, 0.094
2100035, 9, 77, 0.117
2100036, 3, 49, 0.061
2100037, 4, 28, 0.143
2100038, 4, 38, 0.105
2100039, 3, 43, 0.070
2100040, 3, 27, 0.111
2100041, 10, 51, 0.196
2100042, 2, 69, 0.029
2100043, 2, 19, 0.105
2100044, 6, 44, 0.136
2100045, 5, 41, 0.122
2100046, 7, 56, 0.125
2100047, 3, 58, 0.052
2100048, 5, 36, 0.139
2100049, 3, 40, 0.075
2100050, 3, 48, 0.062
2100051, 3, 33, 0.091
2100052, 4, 86, 0.047
2100053, 5, 51, 0.098
2100054, 8, 81, 0.099
2100055, 8, 109, 0.073
2100056, 4, 44, 0.091
2100057, 8, 64, 0.125
2100058, 7, 44, 0.159
2100059, 6, 52, 0.115
2100060, 2, 27, 0.074
2100061, 13, 76, 0.171
2100062, 8, 55, 0.145
2100063, 6, 36, 0.167
2100064, 5, 59, 0.085
2100065, 11, 78, 0.141
2100066, 2, 38, 0.053
2100067, 7, 37, 0.189
2100068, 1, 33, 0.030
2100069, 1, 35, 0.029
2100070, 5, 18, 0.278
2100071, 16, 136, 0.118
2100072, 8, 33, 0.242
2100073, 14, 64, 0.219
2100074, 4, 69, 0.058
2100075, 4, 58, 0.069
2100076, 10, 70, 0.143
2100077, 9, 54, 0.167
2100078, 10, 45, 0.222
2100079, 11, 65, 0.169
2100080, 12, 51, 0.235
2100081, 8, 75, 0.107
2100082, 16, 72, 0.222
2100083, 6, 54, 0.111
2100084, 5, 58, 0.086
2100085, 5, 65, 0.077
2100086, 3, 15, 0.200
2100087, 9, 48, 0.188
2100088, 1, 27, 0.037
2100089, 4, 51, 0.078
2100090, 2, 50, 0.040
2100091, 3, 70, 0.043
2100092, 2, 42, 0.048
2100093, 6, 37, 0.162
2100094, 4, 48, 0.083
2100095, 1, 24, 0.042
2100096, 4, 37, 0.108
2100097, 7, 98, 0.071
2100098, 15, 55, 0.273
2100099, 4, 49, 0.082
2100100, 4, 48, 0.083
2100101, 6, 46, 0.130
2100102, 7, 40, 0.175
2100103, 6, 76, 0.079
2100104, 6, 58, 0.103
2100105, 7, 52, 0.135
2100106, 11, 68, 0.162
2100107, 8, 71, 0.113
2100108, 4, 44, 0.091
2100109, 13, 70, 0.186
2100110, 12, 172, 0.070
2100111, 10, 542, 0.018
2100112, 4, 73, 0.055
2100113, 8, 323, 0.025
2100114, 2, 28, 0.071
2100115, 6, 66, 0.091
2100116, 7, 65, 0.108
2100117, 6, 56, 0.107
2100118, 3, 35, 0.086
2100119, 12, 65, 0.185
2100120, 5, 59, 0.085
2100121, 6, 90, 0.067
2100122, 16, 54, 0.296
2100123, 13, 69, 0.188
2100124, 13, 50, 0.260
2100125, 15, 51, 0.294
2100126, 6, 50, 0.120
2100127, 5, 47, 0.106
2100128, 4, 51, 0.078
2100129, 9, 54, 0.167
2100130, 5, 117, 0.043
2100131, 5, 22, 0.227
2100132, 5, 49, 0.102
2100133, 13, 68, 0.191
2100134, 12, 74, 0.162
2100135, 11, 77, 0.143
2100136, 1, 45, 0.022
2100137, 5, 43, 0.116
2100138, 9, 46, 0.196
2100139, 9, 57, 0.158
2100140, 4, 52, 0.077
2100141, 11, 54, 0.204
2100142, 3, 52, 0.058
2100143, 4, 52, 0.077
2100144, 6, 61, 0.098
2100145, 2, 70, 0.029
2100146, 0, 53, 0.000
2100147, 1, 38, 0.026
2100148, 4, 58, 0.069
2100149, 4, 37, 0.108
2100150, 6, 65, 0.092
2100151, 8, 105, 0.076
2100152, 5, 61, 0.082
2100153, 9, 61, 0.148
2100154, 4, 55, 0.073
2100155, 11, 48, 0.229
2100156, 5, 49, 0.102
2100157, 5, 43, 0.116
2100158, 3, 65, 0.046
2100159, 4, 53, 0.075
2100160, 5, 36, 0.139
2100161, 7, 44, 0.159
2100162, 10, 73, 0.137
2100163, 14, 82, 0.171
2100164, 5, 49, 0.102
2100165, 13, 59, 0.220
2100166, 0, 43, 0.000
2100167, 4, 103, 0.039
2100168, 9, 45, 0.200
2100169, 4, 67, 0.060
2100170, 9, 59, 0.153
2100171, 19, 63, 0.302
2100172, 21, 76, 0.276
2100173, 20, 91, 0.220
2100174, 7, 82, 0.085
2100175, 10, 76, 0.132
2100176, 5, 81, 0.062
2100177, 3, 76, 0.039
2100178, 6, 85, 0.071
2100179, 4, 46, 0.087
2100180, 3, 69, 0.043
2100181, 3, 117, 0.026
2100182, 5, 64, 0.078
2100183, 11, 62, 0.177
2100184, 5, 53, 0.094
2100185, 15, 74, 0.203
2100186, 6, 60, 0.100
2100187, 7, 51, 0.137
2100188, 14, 63, 0.222
2100189, 12, 53, 0.226
2100190, 14, 48, 0.292
2100191, 1, 44, 0.023
2100192, 8, 56, 0.143
2100193, 20, 85, 0.235
2100194, 8, 89, 0.090
2100195, 15, 66, 0.227
2100196, 7, 61, 0.115
2100197, 8, 46, 0.174
2100198, 7, 65, 0.108
2100199, 2, 66, 0.030
2100200, 2, 75, 0.027
2100201, 3, 46, 0.065
2100202, 1, 90, 0.011
2100203, 3, 45, 0.067
2100204, 6, 67, 0.090
2100205, 10, 50, 0.200
2100206, 0, 41, 0.000
2100207, 20, 78, 0.256
2100208, 18, 99, 0.182
2100209, 6, 95, 0.063
2100210, 3, 42, 0.071
2100211, 5, 81, 0.062
2100212, 9, 53, 0.170
2100213, 4, 68, 0.059
2100214, 5, 45, 0.111
2100215, 4, 52, 0.077
2100216, 0, 51, 0.000
2100217, 2, 59, 0.034
2100218, 5, 67, 0.075
2100219, 6, 93, 0.065
2100220, 4, 41, 0.098
2100221, 3, 87, 0.034
2100222, 5, 85, 0.059
2100223, 5, 50, 0.100
2100224, 3, 77, 0.039
2100225, 8, 118, 0.068
2100226, 11, 71, 0.155
2100227, 1, 49, 0.020
2100228, 8, 62, 0.129
2100229, 1, 59, 0.017
2100230, 8, 123, 0.065
2100231, 6, 49, 0.122
2100232, 7, 54, 0.130
2100233, 5, 43, 0.116
2100234, 1, 57, 0.018
2100235, 6, 83, 0.072
2100236, 3, 56, 0.054
2100237, 6, 95, 0.063
2100238, 11, 47, 0.234
2100239, 7, 69, 0.101
2100240, 4, 74, 0.054
2100241, 0, 55, 0.000
2100242, 0, 24, 0.000
2100243, 8, 81, 0.099
2100244, 11, 83, 0.133
2100245, 16, 56, 0.286
2100246, 11, 175, 0.063
2100247, 1, 44, 0.023
2100248, 11, 59, 0.186
2100249, 12, 48, 0.250
2100250, 15, 53, 0.283
2100251, 15, 91, 0.165
2100252, 13, 67, 0.194
2100253, 6, 65, 0.092
2100254, 47, 138, 0.341
2100255, 40, 169, 0.237
2100256, 56, 227, 0.247
2100257, 25, 188, 0.133
2100258, 59, 179, 0.330
2100259, 28, 221, 0.127
2100260, 49, 162, 0.302
2100261, 31, 115, 0.270
2100262, 48, 150, 0.320
2100263, 35, 102, 0.343
2100264, 49, 154, 0.318
2100265, 25, 105, 0.238
2100266, 47, 128, 0.367
2100267, 29, 93, 0.312
2100268, 49, 164, 0.299
2100269, 28, 152, 0.184
2100270, 48, 149, 0.322
2100271, 33, 101, 0.327
2100272, 45, 197, 0.228
2100273, 27, 130, 0.208
2100274, 46, 161, 0.286
2100275, 19, 87, 0.218
2100276, 33, 135, 0.244
2100277, 19, 88, 0.216
2100278, 40, 120, 0.333
2100279, 28, 115, 0.243
2100280, 23, 68, 0.338
2100281, 43, 168, 0.256
2100282, 14, 105, 0.133
2100283, 18, 98, 0.184
2100284, 16, 80, 0.200
2100285, 20, 96, 0.208
2100286, 16, 95, 0.168
2100287, 20, 70, 0.286
2100288, 25, 107, 0.234
2100289, 13, 138, 0.094
2100290, 9, 78, 0.115
2100291, 14, 80, 0.175
2100292, 5, 53, 0.094
2100293, 11, 109, 0.101
2100294, 15, 70, 0.214
2100295, 14, 213, 0.066
2100296, 8, 95, 0.084
2100297, 12, 63, 0.190
2100298, 16, 182, 0.088
2100299, 18, 96, 0.188
2100300, 18, 73, 0.247
2100301, 21, 100, 0.210
2100302, 31, 212, 0.146
2100303, 10, 95, 0.105
2100304, 16, 77, 0.208
2100305, 11, 75, 0.147
2100306, 22, 96, 0.229
2100307, 4, 68, 0.059
2100308, 5, 107, 0.047
2100309, 3, 60, 0.050
2100310, 9, 71, 0.127
2100311, 7, 90, 0.078
2100312, 16, 75, 0.213
2100313, 13, 79, 0.165
2100314, 7, 85, 0.082
2100315, 7, 99, 0.071
2100316, 6, 59, 0.102
2100317, 11, 82, 0.134
2100318, 7, 68, 0.103
2100319, 3, 86, 0.035
2100320, 22, 77, 0.286
2100321, 15, 123, 0.122
2100322, 3, 124, 0.024
2100323, 8, 65, 0.123
2100324, 4, 74, 0.054
2100325, 9, 57, 0.158
2100326, 8, 61, 0.131
2100327, 14, 89, 0.157
2100328, 0, 34, 0.000
2100329, 7, 99, 0.071
2100330, 14, 62, 0.226
2100331, 4, 57, 0.070
2100332, 11, 65, 0.169
2100333, 8, 76, 0.105
2100334, 10, 85, 0.118
2100335, 7, 143, 0.049
2100336, 8, 47, 0.170
2100337, 9, 79, 0.114
2100338, 16, 164, 0.098
2100339, 15, 132, 0.114
2100340, 9, 65, 0.138
2100341, 17, 76, 0.224
2100342, 6, 65, 0.092
2100343, 12, 55, 0.218
2100344, 5, 57, 0.088
2100345, 8, 79, 0.101
2100346, 11, 83, 0.133
2100347, 5, 51, 0.098
2100348, 11, 95, 0.116
2100349, 10, 109, 0.092
2100350, 9, 71, 0.127
2100351, 3, 71, 0.042
2100352, 6, 60, 0.100
2100353, 9, 76, 0.118
2100354, 12, 89, 0.135
2100355, 10, 120, 0.083
2100356, 6, 81, 0.074
2100357, 10, 101, 0.099
2100358, 8, 48, 0.167
2100359, 7, 88, 0.080
2100360, 15, 61, 0.246
2100361, 14, 136, 0.103
2100362, 13, 270, 0.048
2100363, 10, 67, 0.149
2100364, 21, 105, 0.200
2100365, 7, 91, 0.077
2100366, 5, 124, 0.040
2100367, 14, 99, 0.141
2100368, 18, 76, 0.237
2100369, 8, 67, 0.119
2100370, 5, 64, 0.078
2100371, 15, 81, 0.185
2100372, 4, 73, 0.055
2100373, 15, 91, 0.165
2100374, 8, 62, 0.129
2100375, 24, 88, 0.273
2100376, 4, 44, 0.091
2100377, 14, 70, 0.200
2100378, 17, 169, 0.101
2100379, 21, 60, 0.350
2100380, 20, 79, 0.253
2100381, 18, 100, 0.180
2100382, 22, 127, 0.173
2100383, 16, 83, 0.193
2100384, 14, 61, 0.230
2100385, 15, 112, 0.134
2100386, 11, 81, 0.136
2100387, 9, 137, 0.066
2100388, 2, 37, 0.054
2100389, 10, 85, 0.118
2100390, 5, 70, 0.071
2100391, 5, 60, 0.083
2100392, 7, 69, 0.101
2100393, 17, 77, 0.221
2100394, 15, 82, 0.183
2100395, 14, 97, 0.144
2100396, 13, 73, 0.178
2100397, 24, 142, 0.169
2100398, 32, 94, 0.340
2100399, 17, 81, 0.210
2100400, 15, 93, 0.161
2100401, 16, 156, 0.103
2100402, 13, 171, 0.076
2100403, 4, 165, 0.024
2100404, 15, 176, 0.085
2100405, 7, 151, 0.046
2100406, 18, 109, 0.165
2100407, 1, 428, 0.002
2100408, 10, 129, 0.078
2100409, 9, 125, 0.072
2100410, 11, 166, 0.066
2100411, 8, 104, 0.077
2100412, 11, 154, 0.071
2100413, 4, 103, 0.039
2100414, 12, 172, 0.070
2100415, 8, 151, 0.053
2100416, 18, 92, 0.196
2100417, 10, 83, 0.120
2100418, 6, 76, 0.079
2100419, 12, 86, 0.140
2100420, 12, 103, 0.117
2100421, 18, 104, 0.173
2100422, 14, 114, 0.123
2100423, 15, 95, 0.158
2100424, 12, 83, 0.145
2100425, 11, 97, 0.113
2100426, 8, 80, 0.100
2100427, 22, 104, 0.212
2100428, 24, 128, 0.188
2100429, 6, 93, 0.065
2100430, 10, 45, 0.222
2100431, 12, 68, 0.176
2100432, 18, 140, 0.129
2100433, 19, 198, 0.096
2100434, 10, 93, 0.108
2100435, 9, 72, 0.125
2100436, 15, 78, 0.192
2100437, 15, 91, 0.165
2100438, 6, 88, 0.068
2100439, 11, 76, 0.145
2100440, 16, 81, 0.198
2100441, 14, 80, 0.175
2100442, 8, 136, 0.059
2100443, 4, 67, 0.060
2100444, 7, 125, 0.056
2100445, 11, 88, 0.125
2100446, 5, 79, 0.063
2100447, 17, 98, 0.173
2100448, 0, 85, 0.000
2100449, 11, 85, 0.129
2100450, 3, 126, 0.024
2100451, 11, 67, 0.164
2100452, 6, 76, 0.079
2100453, 10, 81, 0.123
2100454, 22, 93, 0.237
2100455, 12, 89, 0.135
2100456, 11, 141, 0.078
2100457, 8, 88, 0.091
2100458, 7, 100, 0.070
2100459, 19, 96, 0.198
2100460, 10, 154, 0.065
2100461, 5, 92, 0.054
2100462, 4, 87, 0.046
2100463, 7, 114, 0.061
2100464, 9, 103, 0.087
2100465, 9, 123, 0.073
2100466, 2, 143, 0.014
2100467, 7, 64, 0.109
2100468, 3, 61, 0.049
2100469, 9, 62, 0.145
2100470, 5, 59, 0.085
2100471, 9, 90, 0.100
2100472, 3, 48, 0.062
2100473, 9, 86, 0.105
2100474, 14, 102, 0.137
2100475, 10, 129, 0.078
2100476, 5, 67, 0.075
2100477, 6, 58, 0.103
2100478, 1, 74, 0.014
2100479, 8, 76, 0.105
2100480, 11, 102, 0.108
2100481, 21, 95, 0.221
2100482, 16, 116, 0.138
2100483, 19, 179, 0.106
2100484, 17, 105, 0.162
2100485, 13, 104, 0.125
2100486, 9, 100, 0.090
2100487, 1, 88, 0.011
2100488, 14, 79, 0.177
2100489, 11, 92, 0.120
2100490, 12, 93, 0.129
2100491, 13, 88, 0.148
2100492, 9, 94, 0.096
2100493, 7, 89, 0.079
2100494, 7, 90, 0.078
2100495, 16, 68, 0.235
2100496, 12, 110, 0.109
2100497, 9, 50, 0.180
2100498, 11, 162, 0.068
2100499, 4, 90, 0.044
2100500, 0, 91, 0.000
