2099500, 14, 64, 0.219
2099501, 15, 73, 0.205
2099502, 17, 46, 0.370
2099503, 11, 70, 0.157
2099504, 17, 66, 0.258
2099505, 14, 54, 0.259
2099506, 8, 44, 0.182
2099507, 15, 54, 0.278
2099508, 7, 44, 0.159
2099509, 8, 223, 0.036
2099510, 6, 50, 0.120
2099511, 7, 38, 0.184
2099512, 8, 55, 0.145
2099513, 7, 38, 0.184
2099514, 19, 60, 0.317
2099515, 4, 83, 0.048
2099516, 12, 62, 0.194
2099517, 12, 56, 0.214
2099518, 4, 43, 0.093
2099519, 3, 29, 0.103
2099520, 4, 53, 0.075
2099521, 1, 36, 0.028
2099522, 19, 50, 0.380
2099523, 14, 64, 0.219
2099524, 7, 17, 0.412
2099525, 3, 47, 0.064
2099526, 7, 68, 0.103
2099527, 5, 28, 0.179
2099528, 11, 46, 0.239
2099529, 10, 33, 0.303
2099530, 10, 42, 0.238
2099531, 3, 29, 0.103
2099532, 4, 27, 0.148
2099533, 7, 57, 0.123
2099534, 2, 34, 0.059
2099535, 2, 36, 0.056
2099536, 5, 46, 0.109
2099537, 4, 32, 0.125
2099538, 6, 47, 0.128
2099539, 7, 46, 0.152
2099540, 12, 58, 0.207
2099541, 12, 53, 0.226
2099542, 5, 57, 0.088
2099543, 5, 60, 0.083
2099544, 7, 52, 0.135
2099545, 3, 46, 0.065
2099546, 12, 56, 0.214
2099547, 3, 66, 0.045
2099548, 15, 56, 0.268
2099549, 13, 41, 0.317
2099550, 7, 45, 0.156
2099551, 12, 61, 0.197
2099552, 11, 46, 0.239
2099553, 14, 51, 0.275
2099554, 4, 93, 0.043
2099555, 0, 29, 0.000
2099556, 1, 46, 0.022
2099557, 10, 37, 0.270
2099558, 11, 55, 0.200
2099559, 8, 72, 0.111
2099560, 9, 91, 0.099
2099561, 3, 30, 0.100
2099562, 14, 46, 0.304
2099563, 7, 39, 0.179
2099564, 6, 41, 0.146
2099565, 2, 42, 0.048
2099566, 11, 37, 0.297
2099567, 11, 69, 0.159
2099568, 3, 19, 0.158
2099569, 12, 36, 0.333
2099570, 10, 49, 0.204
2099571, 10, 43, 0.233
2099572, 7, 61, 0.115
2099573, 10, 39, 0.256
2099574, 1, 48, 0.021
2099575, 2, 48, 0.042
2099576, 13, 58, 0.224
2099577, 14, 58, 0.241
2099578, 8, 51, 0.157
2099579, 12, 37, 0.324
2099580, 2, 60, 0.033
2099581, 15, 84, 0.179
2099582, 1, 68, 0.015
2099583, 9, 66, 0.136
2099584, 6, 52, 0.115
2099585, 4, 99, 0.040
2099586, 5, 56, 0.089
2099587, 9, 52, 0.173
2099588, 2, 29, 0.069
2099589, 7, 138, 0.051
2099590, 0, 53, 0.000
2099591, 4, 30, 0.133
2099592, 3, 36, 0.083
2099593, 5, 38, 0.132
2099594, 4, 35, 0.114
2099595, 2, 19, 0.105
2099596, 5, 53, 0.094
2099597, 1, 41, 0.024
2099598, 6, 46, 0.130
2099599, 5, 49, 0.102
2099600, 2, 40, 0.050
2099601, 5, 43, 0.116
2099602, 3, 60, 0.050
2099603, 6, 43, 0.140
2099604, 1, 15, 0.067
2099605, 2, 52, 0.038
2099606, 1, 40, 0.025
2099607, 2, 38, 0.053
2099608, 1, 17, 0.059
2099609, 3, 40, 0.075
2099610, 4, 34, 0.118
2099611, 3, 53, 0.057
2099612, 2, 24, 0.083
2099613, 3, 125, 0.024
2099614, 3, 15, 0.200
2099615, 0, 39, 0.000
2099616, 13, 94, 0.138
2099617, 1, 41, 0.024
2099618, 3, 45, 0.067
2099619, 5, 34, 0.147
2099620, 9, 40, 0.225
2099621, 1, 46, 0.022
2099622, 3, 59, 0.051
2099623, 6, 38, 0.158
2099624, 2, 34, 0.059
2099625, 13, 144, 0.090
2099626, 2, 49, 0.041
2099627, 5, 23, 0.217
2099628, 6, 53, 0.113
2099629, 6, 41, 0.146
2099630, 7, 71, 0.099
2099631, 6, 54, 0.111
2099632, 4, 63, 0.063
2099633, 6, 206, 0.029
2099634, 9, 64, 0.141
2099635, 10, 83, 0.120
2099636, 5, 40, 0.125
2099637, 20, 97, 0.206
2099638, 3, 191, 0.016
2099639, 7, 31, 0.226
2099640, 17, 64, 0.266
2099641, 6, 58, 0.103
2099642, 6, 52, 0.115
2099643, 4, 56, 0.071
2099644, 14, 64, 0.219
2099645, 4, 53, 0.075
2099646, 10, 84, 0.119
2099647, 13, 47, 0.277
2099648, 8, 67, 0.119
2099649, 8, 103, 0.078
2099650, 7, 35, 0.200
2099651, 9, 70, 0.129
2099652, 9, 75, 0.120
2099653, 20, 78, 0.256
2099654, 4, 60, 0.067
2099655, 4, 53, 0.075
2099656, 6, 38, 0.158
2099657, 3, 58, 0.052
2099658, 20, 69, 0.290
2099659, 7, 101, 0.069
2099660, 20, 74, 0.270
2099661, 7, 50, 0.140
2099662, 23, 63, 0.365
2099663, 7, 58, 0.121
2099664, 13, 74, 0.176
2099665, 2, 80, 0.025
2099666, 6, 43, 0.140
2099667, 5, 36, 0.139
2099668, 8, 53, 0.151
2099669, 0, 13, 0.000
2099670, 4, 59, 0.068
2099671, 6, 61, 0.098
2099672, 4, 44, 0.091
2099673, 5, 52, 0.096
2099674, 0, 16, 0.000
2099675, 3, 32, 0.094
2099676, 3, 60, 0.050
2099677, 6, 28, 0.214
2099678, 5, 62, 0.081
2099679, 10, 113, 0.088
2099680, 2, 12, 0.167
2099681, 1, 47, 0.021
2099682, 7, 60, 0.117
2099683, 5, 72, 0.069
2099684, 6, 53, 0.113
2099685, 7, 49, 0.143
2099686, 5, 52, 0.096
2099687, 11, 73, 0.151
2099688, 10, 63, 0.159
2099689, 12, 49, 0.245
2099690, 12, 372, 0.032
2099691, 19, 82, 0.232
2099692, 2, 46, 0.043
2099693, 8, 49, 0.163
2099694, 18, 68, 0.265
2099695, 7, 66, 0.106
2099696, 9, 82, 0.110
2099697, 10, 70, 0.143
2099698, 13, 58, 0.224
2099699, 10, 44, 0.227
2099700, 22, 92, 0.239
2099701, 8, 69, 0.116
2099702, 12, 55, 0.218
2099703, 10, 51, 0.196
2099704, 10, 70, 0.143
2099705, 3, 34, 0.088
2099706, 10, 63, 0.159
2099707, 13, 51, 0.255
2099708, 4, 50, 0.080
2099709, 6, 44, 0.136
2099710, 9, 46, 0.196
2099711, 11, 62, 0.177
2099712, 16, 60, 0.267
2099713, 6, 35, 0.171
2099714, 3, 26, 0.115
2099715, 19, 87, 0.218
2099716, 8, 51, 0.157
2099717, 5, 74, 0.068
2099718, 8, 65, 0.123
2099719, 6, 44, 0.136
2099720, 7, 93, 0.075
2099721, 9, 60, 0.150
2099722, 10, 45, 0.222
2099723, 2, 32, 0.062
2099724, 13, 75, 0.173
2099725, 3, 59, 0.051
2099726, 3, 40, 0.075
2099727, 4, 43, 0.093
2099728, 12, 54, 0.222
2099729, 11, 56, 0.196
2099730, 1, 39, 0.026
2099731, 9, 59, 0.153
2099732, 7, 45, 0.156
2099733, 1, 31, 0.032
2099734, 22, 193, 0.114
2099735, 4, 34, 0.118
2099736, 3, 52, 0.058
2099737, 5, 51, 0.098
2099738, 10, 37, 0.270
2099739, 12, 63, 0.190
2099740, 4, 66, 0.061
2099741, 18, 87, 0.207
2099742, 3, 51, 0.059
2099743, 3, 51, 0.059
2099744, 7, 72, 0.097
2099745, 3, 38, 0.079
2099746, 9, 105, 0.086
2099747, 23, 95, 0.242
2099748, 11, 61, 0.180
2099749, 18, 75, 0.240
2099750, 15, 75, 0.200
2099751, 14, 39, 0.359
2099752, 12, 110, 0.109
2099753, 15, 63, 0.238
2099754, 10, 63, 0.159
2099755, 15, 36, 0.417
2099756, 6, 36, 0.167
2099757, 20, 140, 0.143
2099758, 17, 84, 0.202
2099759, 18, 84, 0.214
2099760, 18, 59, 0.305
2099761, 18, 102, 0.176
2099762, 10, 111, 0.090
2099763, 10, 49, 0.204
2099764, 9, 78, 0.115
2099765, 4, 38, 0.105
2099766, 18, 60, 0.300
2099767, 23, 89, 0.258
2099768, 6, 65, 0.092
2099769, 10, 36, 0.278
2099770, 18, 89, 0.202
2099771, 7, 58, 0.121
2099772, 12, 82, 0.146
2099773, 15, 54, 0.278
2099774, 17, 35, 0.486
2099775, 3, 59, 0.051
2099776, 14, 67, 0.209
2099777, 15, 80, 0.188
2099778, 12, 42, 0.286
2099779, 10, 51, 0.196
2099780, 21, 65, 0.323
2099781, 13, 87, 0.149
2099782, 7, 48, 0.146
2099783, 11, 61, 0.180
2099784, 15, 48, 0.312
2099785, 11, 89, 0.124
2099786, 15, 173, 0.087
2099787, 10, 74, 0.135
2099788, 4, 36, 0.111
2099789, 2, 39, 0.051
2099790, 23, 108, 0.213
2099791, 13, 52, 0.250
2099792, 16, 55, 0.291
2099793, 7, 63, 0.111
2099794, 8, 94, 0.085
2099795, 10, 69, 0.145
2099796, 24, 56, 0.429
2099797, 20, 62, 0.323
2099798, 29, 61, 0.475
2099799, 10, 87, 0.115
2099800, 27, 62, 0.435
2099801, 8, 50, 0.160
2099802, 28, 114, 0.246
2099803, 28, 130, 0.215
2099804, 20, 58, 0.345
2099805, 14, 53, 0.264
2099806, 18, 97, 0.186
2099807, 31, 73, 0.425
2099808, 12, 51, 0.235
2099809, 5, 51, 0.098
2099810, 9, 62, 0.145
2099811, 5, 47, 0.106
2099812, 9, 103, 0.087
2099813, 6, 63, 0.095
2099814, 6, 59, 0.102
2099815, 4, 92, 0.043
2099816, 14, 63, 0.222
2099817, 3, 52, 0.058
2099818, 13, 73, 0.178
2099819, 9, 57, 0.158
2099820, 2, 49, 0.041
2099821, 8, 195, 0.041
2099822, 7, 42, 0.167
2099823, 1, 36, 0.028
2099824, 0, 63, 0.000
2099825, 7, 183, 0.038
2099826, 1, 54, 0.019
2099827, 8, 49, 0.163
2099828, 1, 38, 0.026
2099829, 1, 78, 0.013
2099830, 4, 35, 0.114
2099831, 4, 43, 0.093
2099832, 14, 58, 0.241
2099833, 5, 44, 0.114
2099834, 5, 67, 0.075
2099835, 6, 54, 0.111
2099836, 0, 42, 0.000
2099837, 3, 38, 0.079
2099838, 3, 47, 0.064
2099839, 0, 32, 0.000
2099840, 12, 76, 0.158
2099841, 8, 47, 0.170
2099842, 3, 44, 0.068
2099843, 3, 28, 0.107
2099844, 4, 78, 0.051
2099845, 1, 52, 0.019
2099846, 2, 66, 0.030
2099847, 2, 55, 0.036
2099848, 1, 24, 0.042
2099849, 15, 95, 0.158
2099850, 7, 39, 0.179
2099851, 7, 90, 0.078
2099852, 15, 55, 0.273
2099853, 4, 53, 0.075
2099854, 7, 76, 0.092
2099855, 3, 108, 0.028
2099856, 5, 42, 0.119
2099857, 0, 45, 0.000
2099858, 9, 48, 0.188
2099859, 5, 54, 0.093
2099860, 7, 69, 0.101
2099861, 3, 23, 0.130
2099862, 3, 44, 0.068
2099863, 8, 52, 0.154
2099864, 2, 46, 0.043
2099865, 2, 35, 0.057
2099866, 11, 53, 0.208
2099867, 7, 83, 0.084
2099868, 12, 44, 0.273
2099869, 8, 79, 0.101
2099870, 0, 35, 0.000
2099871, 8, 46, 0.174
2099872, 6, 70, 0.086
2099873, 3, 70, 0.043
2099874, 11, 58, 0.190
2099875, 1, 53, 0.019
2099876, 8, 107, 0.075
2099877, 10, 123, 0.081
2099878, 4, 54, 0.074
2099879, 2, 60, 0.033
2099880, 4, 48, 0.083
2099881, 3, 51, 0.059
2099882, 0, 55, 0.000
2099883, 7, 40, 0.175
2099884, 2, 71, 0.028
2099885, 5, 35, 0.143
2099886, 3, 59, 0.051
2099887, 3, 60, 0.050
2099888, 2, 39, 0.051
2099889, 3, 90, 0.033
2099890, 4, 56, 0.071
2099891, 3, 46, 0.065
2099892, 4, 54, 0.074
2099893, 3, 47, 0.064
2099894, 3, 31, 0.097
2099895, 5, 45, 0.111
2099896, 4, 58, 0.069
2099897, 1, 32, 0.031
2099898, 5, 52, 0.096
2099899, 0, 46, 0.000
2099900, 3, 29, 0.103
2099901, 4, 67, 0.060
2099902, 1, 47, 0.021
2099903, 1, 30, 0.033
2099904, 7, 36, 0.194
2099905, 2, 86, 0.023
2099906, 9, 47, 0.191
2099907, 8, 61, 0.131
2099908, 4, 87, 0.046
2099909, 5, 242, 0.021
2099910, 0, 20, 0.000
2099911, 9, 65, 0.138
2099912, 7, 66, 0.106
2099913, 4, 33, 0.121
2099914, 8, 76, 0.105
2099915, 10, 97, 0.103
2099916, 7, 38, 0.184
2099917, 10, 54, 0.185
2099918, 2, 86, 0.023
2099919, 0, 35, 0.000
2099920, 10, 56, 0.179
2099921, 15, 67, 0.224
2099922, 4, 55, 0.073
2099923, 4, 45, 0.089
2099924, 6, 44, 0.136
2099925, 4, 50, 0.080
2099926, 3, 47, 0.064
2099927, 12, 55, 0.218
2099928, 5, 35, 0.143
2099929, 1, 50, 0.020
2099930, 6, 43, 0.140
2099931, 7, 59, 0.119
2099932, 4, 103, 0.039
2099933, 3, 27, 0.111
2099934, 9, 63, 0.143
2099935, 2, 37, 0.054
2099936, 1, 30, 0.033
2099937, 5, 33, 0.152
2099938, 5, 49, 0.102
2099939, 3, 41, 0.073
2099940, 7, 42, 0.167
2099941, 8, 37, 0.216
2099942, 3, 41, 0.073
2099943, 5, 34, 0.147
2099944, 10, 70, 0.143
2099945, 5, 33, 0.152
2099946, 10, 67, 0.149
2099947, 4, 53, 0.075
2099948, 5, 43, 0.116
2099949, 3, 61, 0.049
2099950, 7, 42, 0.167
2099951, 0, 28, 0.000
2099952, 5, 37, 0.135
2099953, 2, 49, 0.041
2099954, 1, 30, 0.033
2099955, 7, 30, 0.233
2099956, 9, 75, 0.120
2099957, 3, 30, 0.100
2099958, 10, 158, 0.063
2099959, 8, 53, 0.151
2099960, 3, 44, 0.068
2099961, 2, 27, 0.074
2099962, 7, 34, 0.206
2099963, 2, 46, 0.043
2099964, 0, 25, 0.000
2099965, 2, 42, 0.048
2099966, 1, 39, 0.026
2099967, 0, 31, 0.000
2099968, 7, 63, 0.111
2099969, 6, 43, 0.140
2099970, 1, 38, 0.026
2099971, 3, 36, 0.083
2099972, 6, 47, 0.128
2099973, 1, 26, 0.038
2099974, 0, 61, 0.000
2099975, 8, 53, 0.151
2099976, 10, 64, 0.156
2099977, 5, 62, 0.081
2099978, 2, 103, 0.019
2099979, 2, 25, 0.080
2099980, 10, 50, 0.200
2099981, 3, 25, 0.120
2099982, 13, 51, 0.255
2099983, 7, 37, 0.189
2099984, 10, 56, 0.179
2099985, 1, 49, 0.020
2099986, 4, 144, 0.028
2099987, 1, 29, 0.034
2099988, 8, 69, 0.116
2099989, 0, 45, 0.000
2099990, 2, 21, 0.095
2099991, 1, 40, 0.025
2099992, 6, 87, 0.069
2099993, 3, 30, 0.100
2099994, 3, 65, 0.046
2099995, 9, 38, 0.237
2099996, 11, 56, 0.196
2099997, 8, 85, 0.094
2099998, 8, 60, 0.133
2099999, 4, 54, 0.074
2100000, 0, 37, 0.000
