2100000, 0, 37, 0.000
2100001, 7, 33, 0.212
2100002, 2, 35, 0.057
2100003, 1, 51, 0.020
2100004, 4, 82, 0.049
2100005, 9, 44, 0.205
2100006, 1, 31, 0.032
2100007, 4, 41, 0.098
2100008, 0, 29, 0.000
2100009, 2, 71, 0.028
2100010, 2, 61, 0.033
2100011, 5, 29, 0.172
2100012, 5, 32, 0.156
2100013, 7, 50, 0.140
2100014, 2, 45, 0.044
2100015, 2, 47, 0.043
2100016, 4, 61, 0.066
2100017, 1, 68, 0.015
2100018, 1, 45, 0.022
2100019, 7, 50, 0.140
2100020, 2, 43, 0.047
2100021, 2, 36, 0.056
2100022, 7, 39, 0.179
2100023, 7, 44, 0.159
2100024, 1, 32, 0.031
2100025, 5, 39, 0.128
2100026, 10, 60, 0.167
2100027, 9, 67, 0.134
2100028, 8, 92, 0.087
2100029, 19, 45, 0.422
2100030, 4, 45, 0.089
2100031, 13, 60, 0.217
2100032, 9, 47, 0.191
2100033, 9, 71, 0.127
2100034, 6, 64, 0.094
2100035, 12, 77, 0.156
2100036, 4, 49, 0.082
2100037, 9, 28, 0.321
2100038, 5, 38, 0.132
2100039, 3, 43, 0.070
2100040, 4, 27, 0.148
2100041, 11, 51, 0.216
2100042, 2, 69, 0.029
2100043, 2, 19, 0.105
2100044, 7, 44, 0.159
2100045, 5, 41, 0.122
2100046, 8, 56, 0.143
2100047, 6, 58, 0.103
2100048, 8, 36, 0.222
2100049, 3, 40, 0.075
2100050, 4, 48, 0.083
2100051, 5, 33, 0.152
2100052, 4, 86, 0.047
2100053, 5, 51, 0.098
2100054, 8, 81, 0.099
2100055, 10, 109, 0.092
2100056, 4, 44, 0.091
2100057, 11, 64, 0.172
2100058, 9, 44, 0.205
2100059, 7, 52, 0.135
2100060, 2, 27, 0.074
2100061, 13, 76, 0.171
2100062, 14, 55, 0.255
2100063, 8, 36, 0.222
2100064, 7, 59, 0.119
2100065, 18, 78, 0.231
2100066, 2, 38, 0.053
2100067, 10, 37, 0.270
2100068, 1, 33, 0.030
2100069, 1, 35, 0.029
2100070, 7, 18, 0.389
2100071, 19, 136, 0.140
2100072, 8, 33, 0.242
2100073, 18, 64, 0.281
2100074, 9, 69, 0.130
2100075, 6, 58, 0.103
2100076, 17, 70, 0.243
2100077, 10, 54, 0.185
2100078, 12, 45, 0.267
2100079, 11, 65, 0.169
2100080, 14, 51, 0.275
2100081, 12, 75, 0.160
2100082, 16, 72, 0.222
2100083, 12, 54, 0.222
2100084, 6, 58, 0.103
2100085, 5, 65, 0.077
2100086, 3, 15, 0.200
2100087, 9, 48, 0.188
2100088, 2, 27, 0.074
2100089, 4, 51, 0.078
2100090, 4, 50, 0.080
2100091, 5, 70, 0.071
2100092, 4, 42, 0.095
2100093, 6, 37, 0.162
2100094, 6, 48, 0.125
2100095, 1, 24, 0.042
2100096, 4, 37, 0.108
2100097, 9, 98, 0.092
2100098, 15, 55, 0.273
2100099, 4, 49, 0.082
2100100, 5, 48, 0.104
2100101, 7, 46, 0.152
2100102, 8, 40, 0.200
2100103, 6, 76, 0.079
2100104, 6, 58, 0.103
2100105, 7, 52, 0.135
2100106, 11, 68, 0.162
2100107, 10, 71, 0.141
2100108, 4, 44, 0.091
2100109, 14, 70, 0.200
2100110, 12, 172, 0.070
2100111, 14, 542, 0.026
2100112, 5, 73, 0.068
2100113, 19, 323, 0.059
2100114, 2, 28, 0.071
2100115, 10, 66, 0.152
2100116, 15, 65, 0.231
2100117, 9, 56, 0.161
2100118, 4, 35, 0.114
2100119, 13, 65, 0.200
2100120, 8, 59, 0.136
2100121, 8, 90, 0.089
2100122, 20, 54, 0.370
2100123, 15, 69, 0.217
2100124, 16, 50, 0.320
2100125, 17, 51, 0.333
2100126, 6, 50, 0.120
2100127, 7, 47, 0.149
2100128, 4, 51, 0.078
2100129, 9, 54, 0.167
2100130, 5, 117, 0.043
2100131, 6, 22, 0.273
2100132, 7, 49, 0.143
2100133, 13, 68, 0.191
2100134, 12, 74, 0.162
2100135, 19, 77, 0.247
2100136, 6, 45, 0.133
2100137, 5, 43, 0.116
2100138, 9, 46, 0.196
2100139, 10, 57, 0.175
2100140, 4, 52, 0.077
2100141, 13, 54, 0.241
2100142, 6, 52, 0.115
2100143, 5, 52, 0.096
2100144, 6, 61, 0.098
2100145, 6, 70, 0.086
2100146, 1, 53, 0.019
2100147, 1, 38, 0.026
2100148, 4, 58, 0.069
2100149, 4, 37, 0.108
2100150, 8, 65, 0.123
2100151, 8, 105, 0.076
2100152, 6, 61, 0.098
2100153, 9, 61, 0.148
2100154, 9, 55, 0.164
2100155, 11, 48, 0.229
2100156, 6, 49, 0.122
2100157, 5, 43, 0.116
2100158, 3, 65, 0.046
2100159, 7, 53, 0.132
2100160, 5, 36, 0.139
2100161, 8, 44, 0.182
2100162, 14, 73, 0.192
2100163, 23, 82, 0.280
2100164, 12, 49, 0.245
2100165, 18, 59, 0.305
2100166, 0, 43, 0.000
2100167, 10, 103, 0.097
2100168, 10, 45, 0.222
2100169, 9, 67, 0.134
2100170, 9, 59, 0.153
2100171, 20, 63, 0.317
2100172, 24, 76, 0.316
2100173, 23, 91, 0.253
2100174, 11, 82, 0.134
2100175, 18, 76, 0.237
2100176, 13, 81, 0.160
2100177, 7, 76, 0.092
2100178, 6, 85, 0.071
2100179, 5, 46, 0.109
2100180, 3, 69, 0.043
2100181, 7, 117, 0.060
2100182, 7, 64, 0.109
2100183, 12, 62, 0.194
2100184, 8, 53, 0.151
2100185, 17, 74, 0.230
2100186, 9, 60, 0.150
2100187, 8, 51, 0.157
2100188, 20, 63, 0.317
2100189, 13, 53, 0.245
2100190, 14, 48, 0.292
2100191, 1, 44, 0.023
2100192, 16, 56, 0.286
2100193, 21, 85, 0.247
2100194, 8, 89, 0.090
2100195, 21, 66, 0.318
2100196, 8, 61, 0.131
2100197, 12, 46, 0.261
2100198, 16, 65, 0.246
2100199, 4, 66, 0.061
2100200, 7, 75, 0.093
2100201, 3, 46, 0.065
2100202, 5, 90, 0.056
2100203, 3, 45, 0.067
2100204, 7, 67, 0.104
2100205, 10, 50, 0.200
2100206, 0, 41, 0.000
2100207, 24, 78, 0.308
2100208, 21, 99, 0.212
2100209, 7, 95, 0.074
2100210, 6, 42, 0.143
2100211, 9, 81, 0.111
2100212, 10, 53, 0.189
2100213, 5, 68, 0.074
2100214, 6, 45, 0.133
2100215, 4, 52, 0.077
2100216, 3, 51, 0.059
2100217, 2, 59, 0.034
2100218, 11, 67, 0.164
2100219, 8, 93, 0.086
2100220, 4, 41, 0.098
2100221, 5, 87, 0.057
2100222, 5, 85, 0.059
2100223, 6, 50, 0.120
2100224, 15, 77, 0.195
2100225, 11, 118, 0.093
2100226, 15, 71, 0.211
2100227, 5, 49, 0.102
2100228, 10, 62, 0.161
2100229, 11, 59, 0.186
2100230, 8, 123, 0.065
2100231, 6, 49, 0.122
2100232, 9, 54, 0.167
2100233, 6, 43, 0.140
2100234, 13, 57, 0.228
2100235, 7, 83, 0.084
2100236, 4, 56, 0.071
2100237, 9, 95, 0.095
2100238, 11, 47, 0.234
2100239, 8, 69, 0.116
2100240, 5, 74, 0.068
2100241, 0, 55, 0.000
2100242, 1, 24, 0.042
2100243, 8, 81, 0.099
2100244, 13, 83, 0.157
2100245, 19, 56, 0.339
2100246, 11, 175, 0.063
2100247, 2, 44, 0.045
2100248, 11, 59, 0.186
2100249, 13, 48, 0.271
2100250, 15, 53, 0.283
2100251, 18, 91, 0.198
2100252, 15, 67, 0.224
2100253, 9, 65, 0.138
2100254, 47, 138, 0.341
2100255, 45, 169, 0.266
2100256, 56, 227, 0.247
2100257, 29, 188, 0.154
2100258, 66, 179, 0.369
2100259, 33, 221, 0.149
2100260, 56, 162, 0.346
2100261, 33, 115, 0.287
2100262, 52, 150, 0.347
2100263, 37, 102, 0.363
2100264, 56, 154, 0.364
2100265, 38, 105, 0.362
2100266, 50, 128, 0.391
2100267, 34, 93, 0.366
2100268, 51, 164, 0.311
2100269, 32, 152, 0.211
2100270, 52, 149, 0.349
2100271, 35, 101, 0.347
2100272, 49, 197, 0.249
2100273, 31, 130, 0.238
2100274, 51, 161, 0.317
2100275, 28, 87, 0.322
2100276, 37, 135, 0.274
2100277, 22, 88, 0.250
2100278, 42, 120, 0.350
2100279, 42, 115, 0.365
2100280, 23, 68, 0.338
2100281, 66, 168, 0.393
2100282, 28, 105, 0.267
2100283, 30, 98, 0.306
2100284, 20, 80, 0.250
2100285, 35, 96, 0.365
2100286, 17, 95, 0.179
2100287, 22, 70, 0.314
2100288, 26, 107, 0.243
2100289, 25, 138, 0.181
2100290, 12, 78, 0.154
2100291, 20, 80, 0.250
2100292, 12, 53, 0.226
2100293, 18, 109, 0.165
2100294, 21, 70, 0.300
2100295, 18, 213, 0.085
2100296, 13, 95, 0.137
2100297, 15, 63, 0.238
2100298, 28, 182, 0.154
2100299, 22, 96, 0.229
2100300, 19, 73, 0.260
2100301, 21, 100, 0.210
2100302, 36, 212, 0.170
2100303, 14, 95, 0.147
2100304, 19, 77, 0.247
2100305, 12, 75, 0.160
2100306, 36, 96, 0.375
2100307, 8, 68, 0.118
2100308, 6, 107, 0.056
2100309, 8, 60, 0.133
2100310, 12, 71, 0.169
2100311, 11, 90, 0.122
2100312, 16, 75, 0.213
2100313, 14, 79, 0.177
2100314, 11, 85, 0.129
2100315, 8, 99, 0.081
2100316, 7, 59, 0.119
2100317, 17, 82, 0.207
2100318, 10, 68, 0.147
2100319, 5, 86, 0.058
2100320, 23, 77, 0.299
2100321, 23, 123, 0.187
2100322, 7, 124, 0.056
2100323, 8, 65, 0.123
2100324, 7, 74, 0.095
2100325, 9, 57, 0.158
2100326, 10, 61, 0.164
2100327, 20, 89, 0.225
2100328, 0, 34, 0.000
2100329, 15, 99, 0.152
2100330, 22, 62, 0.355
2100331, 11, 57, 0.193
2100332, 14, 65, 0.215
2100333, 12, 76, 0.158
2100334, 11, 85, 0.129
2100335, 13, 143, 0.091
2100336, 8, 47, 0.170
2100337, 10, 79, 0.127
2100338, 17, 164, 0.104
2100339, 20, 132, 0.152
2100340, 12, 65, 0.185
2100341, 19, 76, 0.250
2100342, 8, 65, 0.123
2100343, 14, 55, 0.255
2100344, 6, 57, 0.105
2100345, 8, 79, 0.101
2100346, 14, 83, 0.169
2100347, 5, 51, 0.098
2100348, 11, 95, 0.116
2100349, 15, 109, 0.138
2100350, 13, 71, 0.183
2100351, 7, 71, 0.099
2100352, 9, 60, 0.150
2100353, 15, 76, 0.197
2100354, 17, 89, 0.191
2100355, 14, 120, 0.117
2100356, 9, 81, 0.111
2100357, 10, 101, 0.099
2100358, 8, 48, 0.167
2100359, 12, 88, 0.136
2100360, 15, 61, 0.246
2100361, 21, 136, 0.154
2100362, 13, 270, 0.048
2100363, 12, 67, 0.179
2100364, 21, 105, 0.200
2100365, 14, 91, 0.154
2100366, 10, 124, 0.081
2100367, 14, 99, 0.141
2100368, 19, 76, 0.250
2100369, 15, 67, 0.224
2100370, 7, 64, 0.109
2100371, 20, 81, 0.247
2100372, 7, 73, 0.096
2100373, 21, 91, 0.231
2100374, 10, 62, 0.161
2100375, 25, 88, 0.284
2100376, 8, 44, 0.182
2100377, 16, 70, 0.229
2100378, 23, 169, 0.136
2100379, 21, 60, 0.350
2100380, 22, 79, 0.278
2100381, 22, 100, 0.220
2100382, 27, 127, 0.213
2100383, 17, 83, 0.205
2100384, 16, 61, 0.262
2100385, 19, 112, 0.170
2100386, 13, 81, 0.160
2100387, 15, 137, 0.109
2100388, 2, 37, 0.054
2100389, 12, 85, 0.141
2100390, 9, 70, 0.129
2100391, 13, 60, 0.217
2100392, 14, 69, 0.203
2100393, 20, 77, 0.260
2100394, 22, 82, 0.268
2100395, 27, 97, 0.278
2100396, 17, 73, 0.233
2100397, 26, 142, 0.183
2100398, 35, 94, 0.372
2100399, 21, 81, 0.259
2100400, 17, 93, 0.183
2100401, 16, 156, 0.103
2100402, 15, 171, 0.088
2100403, 6, 165, 0.036
2100404, 17, 176, 0.097
2100405, 12, 151, 0.079
2100406, 18, 109, 0.165
2100407, 1, 428, 0.002
2100408, 11, 129, 0.085
2100409, 11, 125, 0.088
2100410, 14, 166, 0.084
2100411, 9, 104, 0.087
2100412, 14, 154, 0.091
2100413, 7, 103, 0.068
2100414, 13, 172, 0.076
2100415, 13, 151, 0.086
2100416, 21, 92, 0.228
2100417, 12, 83, 0.145
2100418, 7, 76, 0.092
2100419, 18, 86, 0.209
2100420, 17, 103, 0.165
2100421, 23, 104, 0.221
2100422, 23, 114, 0.202
2100423, 16, 95, 0.168
2100424, 14, 83, 0.169
2100425, 14, 97, 0.144
2100426, 12, 80, 0.150
2100427, 24, 104, 0.231
2100428, 27, 128, 0.211
2100429, 8, 93, 0.086
2100430, 10, 45, 0.222
2100431, 17, 68, 0.250
2100432, 32, 140, 0.229
2100433, 24, 198, 0.121
2100434, 14, 93, 0.151
2100435, 10, 72, 0.139
2100436, 17, 78, 0.218
2100437, 21, 91, 0.231
2100438, 9, 88, 0.102
2100439, 16, 76, 0.211
2100440, 21, 81, 0.259
2100441, 16, 80, 0.200
2100442, 10, 136, 0.074
2100443, 4, 67, 0.060
2100444, 9, 125, 0.072
2100445, 12, 88, 0.136
2100446, 6, 79, 0.076
2100447, 24, 98, 0.245
2100448, 1, 85, 0.012
2100449, 13, 85, 0.153
2100450, 8, 126, 0.063
2100451, 11, 67, 0.164
2100452, 6, 76, 0.079
2100453, 16, 81, 0.198
2100454, 26, 93, 0.280
2100455, 12, 89, 0.135
2100456, 25, 141, 0.177
2100457, 11, 88, 0.125
2100458, 9, 100, 0.090
2100459, 21, 96, 0.219
2100460, 14, 154, 0.091
2100461, 13, 92, 0.141
2100462, 5, 87, 0.057
2100463, 8, 114, 0.070
2100464, 10, 103, 0.097
2100465, 16, 123, 0.130
2100466, 3, 143, 0.021
2100467, 8, 64, 0.125
2100468, 3, 61, 0.049
2100469, 11, 62, 0.177
2100470, 7, 59, 0.119
2100471, 11, 90, 0.122
2100472, 6, 48, 0.125
2100473, 10, 86, 0.116
2100474, 15, 102, 0.147
2100475, 12, 129, 0.093
2100476, 11, 67, 0.164
2100477, 9, 58, 0.155
2100478, 6, 74, 0.081
2100479, 12, 76, 0.158
2100480, 18, 102, 0.176
2100481, 23, 95, 0.242
2100482, 19, 116, 0.164
2100483, 20, 179, 0.112
2100484, 27, 105, 0.257
2100485, 14, 104, 0.135
2100486, 12, 100, 0.120
2100487, 4, 88, 0.045
2100488, 14, 79, 0.177
2100489, 16, 92, 0.174
2100490, 32, 93, 0.344
2100491, 16, 88, 0.182
2100492, 11, 94, 0.117
2100493, 8, 89, 0.090
2100494, 8, 90, 0.089
2100495, 16, 68, 0.235
2100496, 12, 110, 0.109
2100497, 9, 50, 0.180
2100498, 11, 162, 0.068
2100499, 4, 90, 0.044
2100500, 0, 91, 0.000
