2062495, 0
2062496, 0
2062497, 0
2062498, 0
2062499, 0
2062500, 1
2062501, 1
2062502, 1
2062503, 1
2062504, 1
2062505, 1
2062506, 1
2062507, 1
2062508, 1
2062509, 1
2062510, 0
2062511, 0
2062512, 0
2062513, 0
2062514, 0
2062515, 1
2062516, 0
2062517, 0
2062518, 0
2062519, 1
2062520, 1
2062521, 0
2062522, 1
2062523, 1
2062524, 1
2062525, 0
2062526, 1
2062527, 0
2062528, 0
2062529, 0
2062530, 0
2062531, 0
2062532, 2
2062533, 0
2062534, 0
2062535, 0
2062536, 2
2062537, 0
2062538, 0
2062539, 0
2062540, 0
2062541, 0
2062542, 0
2062543, 0
2062544, 2
2062545, 0
2062546, 0
2062547, 2
2062548, 0
2062549, 0
2062550, 0
2062551, 0
2062552, 0
2062553, 0
2062554, 0
2062555, 0
2062556, 0
2062557, 0
2062558, 0
2062559, 0
2062560, 0
2062561, 0
2062562, 0
2062563, 0
2062564, 0
2062565, 0
2062566, 0
2062567, 0
2062568, 0
2062569, 0
2062570, 0
2062571, 0
2062572, 1
2062573, 0
2062574, 0
2062575, 0
2062576, 0
2062577, 0
2062578, 0
2062579, 0
2062580, 0
2062581, 0
2062582, 0
2062583, 0
2062584, 0
2062585, 0
2062586, 0
2062587, 0
2062588, 0
2062589, 0
2062590, 0
2062591, 0
2062592, 0
2062593, 4
2062594, 0
2062595, 0
2062596, 0
2062597, 0
2062598, 0
2062599, 0
2062600, 0
2062601, 0
2062602, 0
2062603, 0
2062604, 0
2062605, 0
2062606, 0
2062607, 0
2062608, 0
2062609, 0
2062610, 0
2062611, 0
2062612, 0
2062613, 0
2062614, 0
2062615, 0
2062616, 0
2062617, 0
2062618, 0
2062619, 0
2062620, 0
2062621, 0
2062622, 0
2062623, 0
2062624, 0
2062625, 1
2062626, 0
2062627, 0
2062628, 0
2062629, 0
2062630, 0
2062631, 0
2062632, 0
2062633, 0
2062634, 0
2062635, 0
2062636, 0
2062637, 0
2062638, 1
2062639, 0
2062640, 0
2062641, 0
2062642, 0
2062643, 0
2062644, 0
2062645, 1
2062646, 0
2062647, 0
2062648, 2
2062649, 0
2062650, 0
2062651, 0
2062652, 0
2062653, 0
2062654, 0
2062655, 0
2062656, 0
2062657, 1
2062658, 0
2062659, 0
2062660, 0
2062661, 0
2062662, 0
2062663, 0
2062664, 0
2062665, 0
2062666, 0
2062667, 0
2062668, 0
2062669, 0
2062670, 0
2062671, 0
2062672, 0
2062673, 0
2062674, 0
2062675, 0
2062676, 0
2062677, 0
2062678, 0
2062679, 0
2062680, 0
2062681, 0
2062682, 0
2062683, 0
2062684, 0
2062685, 0
2062686, 0
2062687, 1
2062688, 1
2062689, 0
2062690, 0
2062691, 0
2062692, 0
2062693, 0
2062694, 0
2062695, 0
2062696, 0
2062697, 0
2062698, 0
2062699, 2
2062700, 0
2062701, 0
2062702, 0
2062703, 0
2062704, 1
2062705, 0
2062706, 1
2062707, 0
2062708, 0
2062709, 0
2062710, 0
2062711, 0
2062712, 0
2062713, 1
2062714, 0
2062715, 1
2062716, 1
2062717, 1
2062718, 1
2062719, 1
2062720, 1
2062721, 2
2062722, 0
2062723, 2
2062724, 0
2062725, 0
2062726, 0
2062727, 0
2062728, 0
2062729, 0
2062730, 0
2062731, 1
2062732, 0
2062733, 0
2062734, 0
2062735, 0
2062736, 0
2062737, 1
2062738, 0
2062739, 0
2062740, 0
2062741, 0
2062742, 0
2062743, 0
2062744, 0
2062745, 8
2062746, 0
2062747, 0
2062748, 0
2062749, 0
2062750, 2
2062751, 0
2062752, 0
2062753, 0
2062754, 1
2062755, 0
2062756, 0
2062757, 0
2062758, 2
2062759, 0
2062760, 0
2062761, 0
2062762, 0
2062763, 0
2062764, 2
2062765, 0
2062766, 0
2062767, 2
2062768, 0
2062769, 2
2062770, 0
2062771, 0
2062772, 0
2062773, 0
2062774, 0
2062775, 0
2062776, 0
2062777, 0
2062778, 2
2062779, 0
2062780, 0
2062781, 0
2062782, 0
2062783, 0
2062784, 0
2062785, 0
2062786, 0
2062787, 0
2062788, 0
2062789, 0
2062790, 0
2062791, 0
2062792, 0
2062793, 0
2062794, 0
2062795, 0
2062796, 0
2062797, 0
2062798, 0
2062799, 5
2062800, 3
2062801, 1
2062802, 0
2062803, 0
2062804, 0
2062805, 0
2062806, 0
2062807, 0
2062808, 1
2062809, 0
2062810, 0
2062811, 0
2062812, 0
2062813, 0
2062814, 2
2062815, 1
2062816, 0
2062817, 0
2062818, 0
2062819, 0
2062820, 1
2062821, 0
2062822, 0
2062823, 0
2062824, 0
2062825, 0
2062826, 0
2062827, 1
2062828, 0
2062829, 0
2062830, 0
2062831, 3
2062832, 0
2062833, 0
2062834, 0
2062835, 0
2062836, 0
2062837, 0
2062838, 2
2062839, 0
2062840, 0
2062841, 0
2062842, 0
2062843, 0
2062844, 0
2062845, 0
2062846, 0
2062847, 0
2062848, 2
2062849, 0
2062850, 0
2062851, 0
2062852, 0
2062853, 0
2062854, 0
2062855, 0
2062856, 0
2062857, 0
2062858, 0
2062859, 0
2062860, 0
2062861, 0
2062862, 1
2062863, 0
2062864, 0
2062865, 0
2062866, 0
2062867, 0
2062868, 1
2062869, 0
2062870, 0
2062871, 1
2062872, 0
2062873, 0
2062874, 0
2062875, 0
2062876, 0
2062877, 1
2062878, 0
2062879, 0
2062880, 0
2062881, 0
2062882, 0
2062883, 0
2062884, 0
2062885, 0
2062886, 0
2062887, 0
2062888, 0
2062889, 0
2062890, 0
2062891, 0
2062892, 0
2062893, 0
2062894, 0
2062895, 0
2062896, 0
2062897, 0
2062898, 0
2062899, 0
2062900, 0
2062901, 0
2062902, 0
2062903, 0
2062904, 0
2062905, 0
2062906, 2
2062907, 0
2062908, 0
2062909, 0
2062910, 0
2062911, 0
2062912, 0
2062913, 0
2062914, 0
2062915, 0
2062916, 0
2062917, 1
2062918, 0
2062919, 0
2062920, 0
2062921, 0
2062922, 0
2062923, 0
2062924, 0
2062925, 0
2062926, 0
2062927, 0
2062928, 0
2062929, 0
2062930, 0
2062931, 0
2062932, 0
2062933, 0
2062934, 0
2062935, 0
2062936, 1
2062937, 1
2062938, 5
2062939, 0
2062940, 0
2062941, 0
2062942, 1
2062943, 0
2062944, 2
2062945, 0
2062946, 0
2062947, 0
2062948, 0
2062949, 1
2062950, 0
2062951, 0
2062952, 0
2062953, 0
2062954, 0
2062955, 0
2062956, 2
2062957, 0
2062958, 0
2062959, 0
2062960, 0
2062961, 0
2062962, 0
2062963, 0
2062964, 0
2062965, 0
2062966, 0
2062967, 0
2062968, 0
2062969, 1
2062970, 0
2062971, 1
2062972, 0
2062973, 0
2062974, 0
2062975, 0
2062976, 1
2062977, 0
2062978, 0
2062979, 0
2062980, 0
2062981, 0
2062982, 0
2062983, 0
2062984, 0
2062985, 0
2062986, 0
2062987, 0
2062988, 0
2062989, 0
2062990, 0
2062991, 1
2062992, 0
2062993, 0
2062994, 1
2062995, 1
2062996, 0
2062997, 0
2062998, 0
2062999, 0
2063000, 0
2063001, 0
2063002, 0
2063003, 0
2063004, 0
2063005, 0
2063006, 0
2063007, 0
2063008, 0
2063009, 0
2063010, 0
2063011, 0
2063012, 0
2063013, 0
2063014, 0
2063015, 0
2063016, 0
2063017, 0
2063018, 0
2063019, 0
2063020, 0
2063021, 0
2063022, 0
2063023, 0
2063024, 0
2063025, 0
2063026, 0
2063027, 0
2063028, 0
2063029, 0
2063030, 0
2063031, 1
2063032, 0
2063033, 1
2063034, 1
2063035, 0
2063036, 0
2063037, 0
2063038, 0
2063039, 0
2063040, 0
2063041, 0
2063042, 0
2063043, 0
2063044, 2
2063045, 0
2063046, 0
2063047, 0
2063048, 0
2063049, 0
2063050, 0
2063051, 0
2063052, 0
2063053, 0
2063054, 0
2063055, 0
2063056, 0
2063057, 0
2063058, 1
2063059, 0
2063060, 0
2063061, 0
2063062, 1
2063063, 1
2063064, 0
2063065, 2
2063066, 0
2063067, 1
2063068, 0
2063069, 0
2063070, 2
2063071, 0
2063072, 0
2063073, 0
2063074, 0
2063075, 0
2063076, 0
2063077, 0
2063078, 0
2063079, 0
2063080, 0
2063081, 0
2063082, 0
2063083, 0
2063084, 0
2063085, 0
2063086, 0
2063087, 0
2063088, 0
2063089, 0
2063090, 0
2063091, 0
2063092, 0
2063093, 0
2063094, 0
2063095, 2
2063096, 0
2063097, 2
2063098, 0
2063099, 1
2063100, 0
2063101, 0
2063102, 0
2063103, 0
2063104, 0
2063105, 0
2063106, 0
2063107, 1
2063108, 0
2063109, 0
2063110, 0
2063111, 1
2063112, 0
2063113, 1
2063114, 1
2063115, 0
2063116, 0
2063117, 0
2063118, 0
2063119, 0
2063120, 0
2063121, 1
2063122, 0
2063123, 0
2063124, 0
2063125, 0
2063126, 0
2063127, 2
2063128, 1
2063129, 0
2063130, 0
2063131, 0
2063132, 0
2063133, 0
2063134, 0
2063135, 0
2063136, 0
2063137, 0
2063138, 0
2063139, 0
2063140, 0
2063141, 0
2063142, 3
2063143, 0
2063144, 2
2063145, 0
2063146, 0
2063147, 0
2063148, 0
2063149, 0
2063150, 0
2063151, 0
2063152, 0
2063153, 0
2063154, 0
2063155, 0
2063156, 0
2063157, 0
2063158, 0
2063159, 0
2063160, 1
2063161, 0
2063162, 0
2063163, 0
2063164, 0
2063165, 0
2063166, 0
2063167, 0
2063168, 0
2063169, 0
2063170, 1
2063171, 0
2063172, 0
2063173, 0
2063174, 0
2063175, 0
2063176, 0
2063177, 0
2063178, 0
2063179, 0
2063180, 1
2063181, 1
2063182, 0
2063183, 0
2063184, 0
2063185, 0
2063186, 0
2063187, 0
2063188, 0
2063189, 0
2063190, 0
2063191, 0
2063192, 0
2063193, 0
2063194, 1
2063195, 1
2063196, 1
2063197, 0
2063198, 1
2063199, 0
2063200, 2
2063201, 0
2063202, 0
2063203, 0
2063204, 0
2063205, 0
2063206, 0
2063207, 0
2063208, 0
2063209, 0
2063210, 0
2063211, 1
2063212, 0
2063213, 0
2063214, 0
2063215, 0
2063216, 0
2063217, 0
2063218, 0
2063219, 0
2063220, 0
2063221, 0
2063222, 0
2063223, 0
2063224, 0
2063225, 0
2063226, 0
2063227, 0
2063228, 0
2063229, 0
2063230, 1
2063231, 0
2063232, 0
2063233, 0
2063234, 0
2063235, 0
2063236, 0
2063237, 0
2063238, 0
2063239, 0
2063240, 0
2063241, 0
2063242, 0
2063243, 0
2063244, 0
2063245, 0
2063246, 0
2063247, 0
2063248, 0
2063249, 0
2063250, 0
2063251, 0
2063252, 0
2063253, 0
2063254, 0
2063255, 0
2063256, 1
2063257, 0
2063258, 0
2063259, 0
2063260, 0
2063261, 0
2063262, 0
2063263, 0
2063264, 0
2063265, 1
2063266, 0
2063267, 0
2063268, 0
2063269, 0
2063270, 0
2063271, 0
2063272, 0
2063273, 0
2063274, 0
2063275, 0
2063276, 0
2063277, 0
2063278, 0
2063279, 0
2063280, 0
2063281, 0
2063282, 0
2063283, 0
2063284, 0
2063285, 0
2063286, 0
2063287, 0
2063288, 0
2063289, 0
2063290, 0
2063291, 0
2063292, 0
2063293, 0
2063294, 0
2063295, 0
2063296, 0
2063297, 0
2063298, 0
2063299, 0
2063300, 0
2063301, 0
2063302, 0
2063303, 0
2063304, 0
2063305, 1
2063306, 0
2063307, 0
2063308, 0
2063309, 1
2063310, 4
2063311, 0
2063312, 0
2063313, 0
2063314, 0
2063315, 0
2063316, 0
2063317, 0
2063318, 0
2063319, 0
2063320, 1
2063321, 0
2063322, 0
2063323, 1
2063324, 0
2063325, 0
2063326, 1
2063327, 0
2063328, 1
2063329, 0
2063330, 0
2063331, 0
2063332, 0
2063333, 0
2063334, 0
2063335, 0
2063336, 0
2063337, 0
2063338, 0
2063339, 1
2063340, 0
2063341, 0
2063342, 0
2063343, 0
2063344, 0
2063345, 0
2063346, 1
2063347, 0
2063348, 0
2063349, 0
2063350, 0
2063351, 0
2063352, 0
2063353, 0
2063354, 0
2063355, 0
2063356, 5
2063357, 0
2063358, 0
2063359, 0
2063360, 0
2063361, 0
2063362, 0
2063363, 0
2063364, 0
2063365, 0
2063366, 0
2063367, 0
2063368, 0
2063369, 1
2063370, 0
2063371, 0
2063372, 0
2063373, 0
2063374, 0
2063375, 0
2063376, 0
2063377, 1
2063378, 0
2063379, 0
2063380, 0
2063381, 0
2063382, 0
2063383, 0
2063384, 0
2063385, 0
2063386, 0
2063387, 0
2063388, 0
2063389, 0
2063390, 0
2063391, 0
2063392, 0
2063393, 0
2063394, 0
2063395, 0
2063396, 0
2063397, 0
2063398, 0
2063399, 0
2063400, 0
2063401, 0
2063402, 0
2063403, 0
2063404, 0
2063405, 0
2063406, 0
2063407, 0
2063408, 0
2063409, 0
2063410, 0
2063411, 0
2063412, 0
2063413, 0
2063414, 0
2063415, 0
2063416, 0
2063417, 0
2063418, 2
2063419, 0
2063420, 0
2063421, 0
2063422, 0
2063423, 1
2063424, 0
2063425, 0
2063426, 0
2063427, 0
2063428, 0
2063429, 0
2063430, 0
2063431, 0
2063432, 0
2063433, 0
2063434, 0
2063435, 0
2063436, 0
2063437, 0
2063438, 1
2063439, 0
2063440, 0
2063441, 0
2063442, 0
2063443, 0
2063444, 0
2063445, 0
2063446, 0
2063447, 0
2063448, 0
2063449, 0
2063450, 0
2063451, 1
2063452, 1
2063453, 3
2063454, 2
2063455, 4
2063456, 0
2063457, 1
2063458, 2
2063459, 0
2063460, 3
2063461, 1
2063462, 2
2063463, 0
2063464, 0
2063465, 0
2063466, 2
2063467, 4
2063468, 0
2063469, 0
2063470, 0
2063471, 1
2063472, 0
2063473, 0
2063474, 2
2063475, 2
2063476, 0
2063477, 0
2063478, 0
2063479, 4
2063480, 0
2063481, 0
2063482, 0
2063483, 2
2063484, 2
2063485, 0
2063486, 2
2063487, 0
2063488, 2
2063489, 0
2063490, 0
2063491, 0
2063492, 0
2063493, 2
2063494, 0
2063495, 0
