2063664, 0
2063665, 0
2063666, 1
2063667, 0
2063668, 0
2063669, 0
2063670, 0
2063671, 3
2063672, 0
2063673, 0
2063674, 0
2063675, 0
2063676, 0
2063677, 0
2063678, 0
2063679, 0
2063680, 0
2063681, 0
2063682, 0
2063683, 0
2063684, 0
2063685, 0
2063686, 0
2063687, 0
2063688, 0
2063689, 0
2063690, 0
2063691, 0
2063692, 0
2063693, 0
2063694, 0
2063695, 2
2063696, 0
2063697, 0
2063698, 1
2063699, 0
2063700, 0
2063701, 0
2063702, 0
2063703, 0
2063704, 0
2063705, 0
2063706, 0
2063707, 0
2063708, 0
2063709, 0
2063710, 0
2063711, 0
2063712, 0
2063713, 0
2063714, 0
2063715, 0
2063716, 0
2063717, 0
2063718, 0
2063719, 0
2063720, 0
2063721, 0
2063722, 0
2063723, 0
2063724, 0
2063725, 0
2063726, 0
2063727, 0
2063728, 0
2063729, 0
2063730, 0
2063731, 0
2063732, 3
2063733, 0
2063734, 0
2063735, 0
2063736, 0
2063737, 0
2063738, 0
2063739, 0
2063740, 0
2063741, 0
2063742, 0
2063743, 0
2063744, 0
2063745, 0
2063746, 0
2063747, 0
2063748, 0
2063749, 0
2063750, 0
2063751, 0
2063752, 0
2063753, 1
2063754, 0
2063755, 0
2063756, 0
2063757, 2
2063758, 1
2063759, 0
2063760, 0
2063761, 0
2063762, 0
2063763, 0
