2058886, 0
2058887, 1
2058888, 0
2058889, 0
2058890, 0
2058891, 0
2058892, 0
2058893, 0
2058894, 0
2058895, 0
2058896, 0
2058897, 0
2058898, 0
2058899, 0
2058900, 0
2058901, 1
2058902, 0
2058903, 0
2058904, 0
2058905, 0
2058906, 0
2058907, 0
2058908, 0
2058909, 0
2058910, 0
2058911, 0
2058912, 0
2058913, 0
2058914, 0
2058915, 0
2058916, 0
2058917, 0
2058918, 1
2058919, 0
2058920, 0
2058921, 0
2058922, 0
2058923, 0
2058924, 0
2058925, 0
2058926, 1
2058927, 0
2058928, 0
2058929, 0
2058930, 3
2058931, 0
2058932, 0
2058933, 0
2058934, 0
2058935, 0
2058936, 0
2058937, 0
2058938, 0
2058939, 1
2058940, 0
2058941, 0
2058942, 0
2058943, 0
2058944, 0
2058945, 0
2058946, 0
2058947, 0
2058948, 0
2058949, 0
2058950, 0
2058951, 0
2058952, 0
2058953, 0
2058954, 0
2058955, 0
2058956, 0
2058957, 0
2058958, 3
2058959, 0
2058960, 0
2058961, 0
2058962, 0
2058963, 0
2058964, 0
2058965, 3
2058966, 0
2058967, 1
2058968, 0
2058969, 0
2058970, 0
2058971, 0
2058972, 0
2058973, 0
2058974, 0
2058975, 0
2058976, 0
2058977, 0
2058978, 0
2058979, 0
2058980, 0
2058981, 0
2058982, 0
2058983, 0
2058984, 0
2058985, 0
2058986, 0
2058987, 0
2058988, 0
2058989, 0
2058990, 0
2058991, 0
2058992, 0
2058993, 0
2058994, 0
2058995, 0
2058996, 0
2058997, 1
2058998, 0
2058999, 0
2059000, 0
2059001, 0
2059002, 0
2059003, 0
2059004, 0
2059005, 2
2059006, 0
2059007, 0
2059008, 0
2059009, 0
2059010, 1
2059011, 1
2059012, 2
2059013, 0
2059014, 0
2059015, 0
2059016, 0
2059017, 0
2059018, 0
2059019, 0
2059020, 0
2059021, 0
2059022, 0
2059023, 0
2059024, 0
2059025, 0
2059026, 0
2059027, 0
2059028, 0
2059029, 0
2059030, 0
2059031, 0
2059032, 0
2059033, 0
2059034, 0
2059035, 2
2059036, 0
2059037, 0
2059038, 0
2059039, 0
2059040, 1
2059041, 0
2059042, 0
2059043, 1
2059044, 0
2059045, 2
2059046, 1
2059047, 1
2059048, 0
2059049, 0
2059050, 1
2059051, 0
2059052, 0
2059053, 1
2059054, 3
2059055, 2
2059056, 0
2059057, 0
2059058, 0
2059059, 1
2059060, 1
2059061, 0
2059062, 0
2059063, 0
2059064, 0
2059065, 0
2059066, 0
2059067, 0
2059068, 2
2059069, 0
2059070, 0
2059071, 0
2059072, 0
2059073, 0
2059074, 0
2059075, 0
2059076, 0
2059077, 0
2059078, 0
2059079, 0
2059080, 0
2059081, 0
2059082, 3
2059083, 0
2059084, 0
2059085, 0
2059086, 0
2059087, 0
2059088, 0
2059089, 0
2059090, 0
2059091, 0
2059092, 0
2059093, 0
2059094, 0
2059095, 0
2059096, 0
2059097, 0
2059098, 0
2059099, 0
2059100, 2
2059101, 0
2059102, 0
2059103, 0
2059104, 0
2059105, 0
2059106, 1
2059107, 0
2059108, 0
2059109, 0
2059110, 0
2059111, 0
2059112, 0
2059113, 0
2059114, 0
2059115, 3
2059116, 0
2059117, 0
2059118, 0
2059119, 0
2059120, 0
2059121, 0
2059122, 0
2059123, 0
2059124, 0
2059125, 0
2059126, 0
2059127, 0
2059128, 0
2059129, 0
2059130, 0
2059131, 0
2059132, 0
2059133, 0
2059134, 0
2059135, 0
2059136, 0
2059137, 0
2059138, 0
2059139, 0
2059140, 0
2059141, 0
2059142, 0
2059143, 0
2059144, 0
2059145, 0
2059146, 0
2059147, 0
2059148, 0
2059149, 0
2059150, 0
2059151, 2
2059152, 2
2059153, 0
2059154, 0
2059155, 0
2059156, 0
2059157, 0
2059158, 0
2059159, 1
2059160, 3
2059161, 0
2059162, 0
2059163, 0
2059164, 0
2059165, 1
2059166, 0
2059167, 0
2059168, 0
2059169, 0
2059170, 0
2059171, 0
2059172, 0
2059173, 0
2059174, 0
2059175, 0
2059176, 0
2059177, 0
2059178, 0
2059179, 1
2059180, 0
2059181, 0
2059182, 0
2059183, 0
2059184, 0
2059185, 0
2059186, 0
2059187, 0
2059188, 0
2059189, 0
2059190, 0
2059191, 0
2059192, 0
2059193, 2
2059194, 0
2059195, 0
2059196, 0
2059197, 0
2059198, 0
2059199, 0
2059200, 0
2059201, 0
2059202, 0
2059203, 4
2059204, 0
2059205, 0
2059206, 0
2059207, 0
2059208, 0
2059209, 0
2059210, 0
2059211, 0
2059212, 0
2059213, 0
2059214, 0
2059215, 0
2059216, 0
2059217, 0
2059218, 0
2059219, 0
2059220, 0
2059221, 0
2059222, 0
2059223, 0
2059224, 0
2059225, 1
2059226, 0
2059227, 0
2059228, 0
2059229, 0
2059230, 0
2059231, 0
2059232, 0
2059233, 0
2059234, 0
2059235, 0
2059236, 0
2059237, 0
2059238, 0
2059239, 0
2059240, 0
2059241, 0
2059242, 2
2059243, 0
2059244, 0
2059245, 8
2059246, 0
2059247, 0
2059248, 0
2059249, 0
2059250, 1
2059251, 0
2059252, 0
2059253, 0
2059254, 0
2059255, 0
2059256, 0
2059257, 0
2059258, 0
2059259, 0
2059260, 0
2059261, 0
2059262, 0
2059263, 0
2059264, 0
2059265, 0
2059266, 0
2059267, 0
2059268, 0
2059269, 0
2059270, 0
2059271, 0
2059272, 0
2059273, 0
2059274, 0
2059275, 0
2059276, 0
2059277, 0
2059278, 0
2059279, 0
2059280, 0
2059281, 0
2059282, 0
2059283, 0
2059284, 0
2059285, 0
2059286, 0
2059287, 0
2059288, 0
2059289, 0
2059290, 0
2059291, 0
2059292, 0
2059293, 0
2059294, 0
2059295, 0
2059296, 0
2059297, 0
2059298, 3
2059299, 3
2059300, 0
2059301, 3
2059302, 0
2059303, 0
2059304, 0
2059305, 0
2059306, 0
2059307, 0
2059308, 0
2059309, 0
2059310, 1
2059311, 0
2059312, 0
2059313, 0
2059314, 0
2059315, 0
2059316, 1
2059317, 0
2059318, 0
2059319, 0
2059320, 0
2059321, 0
2059322, 0
2059323, 0
2059324, 0
2059325, 0
2059326, 0
2059327, 0
2059328, 0
2059329, 0
2059330, 0
2059331, 0
2059332, 0
2059333, 0
2059334, 0
2059335, 0
2059336, 0
2059337, 0
2059338, 0
2059339, 0
2059340, 0
2059341, 0
2059342, 0
2059343, 0
2059344, 0
2059345, 0
2059346, 0
2059347, 0
2059348, 0
2059349, 0
2059350, 0
2059351, 0
2059352, 0
2059353, 0
2059354, 0
2059355, 0
2059356, 0
2059357, 0
2059358, 0
2059359, 0
2059360, 0
2059361, 0
2059362, 1
2059363, 0
2059364, 1
2059365, 0
2059366, 0
2059367, 1
2059368, 0
2059369, 0
2059370, 0
2059371, 0
2059372, 0
2059373, 0
2059374, 0
2059375, 0
2059376, 0
2059377, 0
2059378, 0
2059379, 0
2059380, 0
2059381, 0
2059382, 0
2059383, 0
2059384, 0
2059385, 0
2059386, 0
2059387, 0
2059388, 0
2059389, 0
2059390, 0
2059391, 0
2059392, 0
2059393, 0
2059394, 0
2059395, 0
2059396, 0
2059397, 0
2059398, 0
2059399, 0
2059400, 0
2059401, 0
2059402, 0
2059403, 0
2059404, 1
2059405, 0
2059406, 0
2059407, 0
2059408, 0
2059409, 0
2059410, 1
2059411, 0
2059412, 0
2059413, 0
2059414, 0
2059415, 0
2059416, 0
2059417, 0
2059418, 0
2059419, 0
2059420, 0
2059421, 0
2059422, 0
2059423, 0
2059424, 0
2059425, 0
2059426, 0
2059427, 0
2059428, 0
2059429, 0
2059430, 0
2059431, 0
2059432, 0
2059433, 0
2059434, 0
2059435, 0
2059436, 0
2059437, 2
2059438, 0
2059439, 0
2059440, 0
2059441, 0
2059442, 0
2059443, 0
2059444, 0
2059445, 0
2059446, 0
2059447, 1
2059448, 0
2059449, 0
2059450, 0
2059451, 0
2059452, 0
2059453, 2
2059454, 0
2059455, 0
2059456, 0
2059457, 0
2059458, 2
2059459, 0
2059460, 0
2059461, 3
2059462, 3
2059463, 2
2059464, 3
2059465, 4
2059466, 2
2059467, 3
2059468, 2
2059469, 2
2059470, 0
2059471, 0
2059472, 0
2059473, 0
2059474, 0
2059475, 0
2059476, 0
2059477, 0
2059478, 0
2059479, 0
2059480, 0
2059481, 1
2059482, 0
2059483, 0
2059484, 0
2059485, 0
2059486, 2
2059487, 0
2059488, 0
2059489, 0
2059490, 0
2059491, 0
2059492, 0
2059493, 0
2059494, 0
2059495, 0
2059496, 0
2059497, 0
2059498, 0
2059499, 0
2059500, 0
2059501, 0
2059502, 0
2059503, 0
2059504, 0
2059505, 0
2059506, 0
2059507, 0
2059508, 0
2059509, 0
2059510, 0
2059511, 0
2059512, 0
2059513, 0
2059514, 0
2059515, 0
2059516, 0
2059517, 0
2059518, 0
2059519, 0
2059520, 0
2059521, 0
2059522, 0
2059523, 1
2059524, 0
2059525, 0
2059526, 0
2059527, 0
2059528, 1
2059529, 0
2059530, 0
2059531, 0
2059532, 0
2059533, 0
2059534, 0
2059535, 0
2059536, 0
2059537, 0
2059538, 0
2059539, 0
2059540, 0
2059541, 0
2059542, 0
2059543, 0
2059544, 3
2059545, 0
2059546, 1
2059547, 1
2059548, 1
2059549, 2
2059550, 1
2059551, 1
2059552, 0
2059553, 0
2059554, 0
2059555, 3
2059556, 0
2059557, 0
2059558, 0
2059559, 0
2059560, 0
2059561, 0
2059562, 1
2059563, 0
2059564, 0
2059565, 0
2059566, 0
2059567, 0
2059568, 0
2059569, 0
2059570, 0
2059571, 1
2059572, 1
2059573, 0
2059574, 0
2059575, 0
2059576, 0
2059577, 0
2059578, 0
2059579, 0
2059580, 0
2059581, 0
2059582, 0
2059583, 0
2059584, 0
2059585, 0
2059586, 1
2059587, 1
2059588, 0
2059589, 0
2059590, 0
2059591, 0
2059592, 0
2059593, 0
2059594, 0
2059595, 0
2059596, 0
2059597, 0
2059598, 0
2059599, 0
2059600, 0
2059601, 0
2059602, 0
2059603, 0
2059604, 0
2059605, 0
2059606, 1
2059607, 0
2059608, 1
2059609, 0
2059610, 0
2059611, 0
2059612, 0
2059613, 0
2059614, 0
2059615, 0
2059616, 0
2059617, 0
2059618, 0
2059619, 0
2059620, 0
2059621, 0
2059622, 0
2059623, 0
2059624, 0
2059625, 0
2059626, 0
2059627, 3
2059628, 0
2059629, 0
2059630, 0
2059631, 0
2059632, 0
2059633, 0
2059634, 0
2059635, 0
2059636, 0
2059637, 0
2059638, 0
2059639, 0
2059640, 0
2059641, 0
2059642, 0
2059643, 0
2059644, 0
2059645, 0
2059646, 0
2059647, 0
2059648, 0
2059649, 0
2059650, 0
2059651, 0
2059652, 0
2059653, 0
2059654, 0
2059655, 0
2059656, 4
2059657, 0
2059658, 0
2059659, 0
2059660, 0
2059661, 0
2059662, 0
2059663, 0
2059664, 0
2059665, 0
2059666, 0
2059667, 0
2059668, 0
2059669, 0
2059670, 0
2059671, 0
2059672, 0
2059673, 0
2059674, 0
2059675, 0
2059676, 0
2059677, 0
2059678, 0
2059679, 0
2059680, 0
2059681, 0
2059682, 0
2059683, 0
2059684, 0
2059685, 0
2059686, 0
2059687, 0
2059688, 0
2059689, 0
2059690, 0
2059691, 0
2059692, 0
2059693, 0
2059694, 0
2059695, 0
2059696, 0
2059697, 0
2059698, 0
2059699, 0
2059700, 0
2059701, 0
2059702, 0
2059703, 0
2059704, 0
2059705, 0
2059706, 0
2059707, 0
2059708, 0
2059709, 0
2059710, 0
2059711, 0
2059712, 0
2059713, 0
2059714, 0
2059715, 0
2059716, 0
2059717, 0
2059718, 0
2059719, 0
2059720, 0
2059721, 0
2059722, 0
2059723, 0
2059724, 0
2059725, 0
2059726, 0
2059727, 0
2059728, 0
2059729, 0
2059730, 0
2059731, 0
2059732, 0
2059733, 0
2059734, 0
2059735, 0
2059736, 0
2059737, 0
2059738, 0
2059739, 0
2059740, 0
2059741, 0
2059742, 1
2059743, 0
2059744, 0
2059745, 0
2059746, 0
2059747, 0
2059748, 0
2059749, 0
2059750, 5
2059751, 0
2059752, 0
2059753, 0
2059754, 0
2059755, 0
2059756, 0
2059757, 0
2059758, 0
2059759, 0
2059760, 0
2059761, 0
2059762, 0
2059763, 0
2059764, 0
2059765, 0
2059766, 0
2059767, 0
2059768, 0
2059769, 1
2059770, 0
2059771, 0
2059772, 0
2059773, 0
2059774, 0
2059775, 0
2059776, 0
2059777, 3
2059778, 0
2059779, 0
2059780, 0
2059781, 0
2059782, 1
2059783, 0
2059784, 0
2059785, 0
2059786, 0
2059787, 0
2059788, 0
2059789, 0
2059790, 0
2059791, 0
2059792, 0
2059793, 0
2059794, 0
2059795, 1
2059796, 1
2059797, 1
2059798, 0
2059799, 6
2059800, 1
2059801, 1
2059802, 0
2059803, 1
2059804, 0
2059805, 1
2059806, 0
2059807, 0
2059808, 0
2059809, 0
2059810, 0
2059811, 0
2059812, 0
2059813, 0
2059814, 0
2059815, 0
2059816, 0
2059817, 1
2059818, 0
2059819, 0
2059820, 0
2059821, 0
2059822, 0
2059823, 1
2059824, 0
2059825, 0
2059826, 0
2059827, 0
2059828, 0
2059829, 0
2059830, 0
2059831, 0
2059832, 0
2059833, 0
2059834, 0
2059835, 0
2059836, 0
2059837, 0
2059838, 0
2059839, 0
2059840, 0
2059841, 0
2059842, 0
2059843, 0
2059844, 0
2059845, 0
2059846, 0
2059847, 0
2059848, 0
2059849, 1
2059850, 1
2059851, 0
2059852, 0
2059853, 0
2059854, 0
2059855, 0
2059856, 0
2059857, 0
2059858, 0
2059859, 0
2059860, 0
2059861, 0
2059862, 0
2059863, 0
2059864, 0
2059865, 0
2059866, 0
2059867, 0
2059868, 0
2059869, 0
2059870, 3
2059871, 0
2059872, 0
2059873, 0
2059874, 0
2059875, 0
2059876, 0
2059877, 0
2059878, 0
2059879, 0
2059880, 0
2059881, 0
2059882, 0
2059883, 0
2059884, 0
2059885, 0
