2056943, 0
2056944, 0
2056945, 0
2056946, 0
2056947, 0
2056948, 0
2056949, 0
2056950, 0
2056951, 0
2056952, 0
2056953, 0
2056954, 0
2056955, 0
2056956, 0
2056957, 0
2056958, 0
2056959, 0
2056960, 0
2056961, 0
2056962, 0
2056963, 0
2056964, 0
2056965, 0
2056966, 0
2056967, 0
2056968, 0
2056969, 0
2056970, 0
2056971, 0
2056972, 0
2056973, 0
2056974, 0
2056975, 0
2056976, 0
2056977, 0
2056978, 0
2056979, 0
2056980, 0
2056981, 0
2056982, 0
2056983, 0
2056984, 0
2056985, 0
2056986, 0
2056987, 0
2056988, 0
2056989, 0
2056990, 0
2056991, 0
2056992, 0
2056993, 0
2056994, 0
2056995, 0
2056996, 0
2056997, 0
2056998, 0
2056999, 0
2057000, 0
2057001, 0
2057002, 0
2057003, 0
2057004, 0
2057005, 0
2057006, 1
2057007, 0
2057008, 0
2057009, 0
2057010, 0
2057011, 0
2057012, 0
2057013, 0
2057014, 0
2057015, 0
2057016, 0
2057017, 0
2057018, 0
2057019, 0
2057020, 0
2057021, 0
2057022, 0
2057023, 0
2057024, 0
2057025, 0
2057026, 0
2057027, 0
2057028, 0
2057029, 0
2057030, 0
2057031, 0
2057032, 8
2057033, 0
2057034, 0
2057035, 0
2057036, 0
2057037, 0
2057038, 0
2057039, 0
2057040, 0
2057041, 0
2057042, 0
2057043, 0
2057044, 0
2057045, 0
2057046, 0
2057047, 0
2057048, 0
2057049, 0
2057050, 0
2057051, 0
2057052, 0
2057053, 0
2057054, 0
2057055, 0
2057056, 0
2057057, 0
2057058, 0
2057059, 0
2057060, 0
2057061, 0
2057062, 0
2057063, 0
2057064, 0
2057065, 0
2057066, 0
2057067, 0
2057068, 0
2057069, 0
2057070, 0
2057071, 0
2057072, 0
2057073, 0
2057074, 0
2057075, 0
2057076, 0
2057077, 2
2057078, 0
2057079, 0
2057080, 0
2057081, 0
2057082, 0
2057083, 0
2057084, 0
2057085, 0
2057086, 0
2057087, 0
2057088, 0
2057089, 0
2057090, 0
2057091, 0
2057092, 0
2057093, 0
2057094, 0
2057095, 0
2057096, 0
2057097, 0
2057098, 0
2057099, 0
2057100, 0
2057101, 0
2057102, 0
2057103, 0
2057104, 0
2057105, 0
2057106, 0
2057107, 0
2057108, 0
2057109, 0
2057110, 0
2057111, 0
2057112, 0
2057113, 0
2057114, 0
2057115, 0
2057116, 0
2057117, 0
2057118, 1
2057119, 0
2057120, 0
2057121, 0
2057122, 0
2057123, 0
2057124, 0
2057125, 0
2057126, 0
2057127, 0
2057128, 0
2057129, 0
2057130, 0
2057131, 2
2057132, 0
2057133, 0
2057134, 0
2057135, 0
2057136, 0
2057137, 0
2057138, 0
2057139, 0
2057140, 0
2057141, 0
2057142, 0
2057143, 0
2057144, 0
2057145, 0
2057146, 0
2057147, 0
2057148, 0
2057149, 0
2057150, 8
2057151, 0
2057152, 0
2057153, 0
2057154, 0
2057155, 0
2057156, 0
2057157, 8
2057158, 0
2057159, 8
2057160, 0
2057161, 4
2057162, 0
2057163, 0
2057164, 0
2057165, 0
2057166, 0
2057167, 0
2057168, 0
2057169, 0
2057170, 0
2057171, 0
2057172, 0
2057173, 0
2057174, 0
2057175, 0
2057176, 0
2057177, 0
2057178, 0
2057179, 0
2057180, 0
2057181, 0
2057182, 0
2057183, 0
2057184, 0
2057185, 0
2057186, 0
2057187, 0
2057188, 0
2057189, 0
2057190, 0
2057191, 0
2057192, 0
2057193, 0
2057194, 0
2057195, 0
2057196, 0
2057197, 0
2057198, 0
2057199, 0
2057200, 0
2057201, 0
2057202, 0
2057203, 0
2057204, 0
2057205, 0
2057206, 0
2057207, 0
2057208, 0
2057209, 0
2057210, 0
2057211, 0
2057212, 0
2057213, 0
2057214, 0
2057215, 0
2057216, 0
2057217, 0
2057218, 0
2057219, 0
2057220, 0
2057221, 0
2057222, 0
2057223, 0
2057224, 0
2057225, 0
2057226, 0
2057227, 0
2057228, 0
2057229, 0
2057230, 0
2057231, 0
2057232, 0
2057233, 0
2057234, 0
2057235, 0
2057236, 0
2057237, 0
2057238, 0
2057239, 0
2057240, 0
2057241, 0
2057242, 0
2057243, 0
2057244, 0
2057245, 0
2057246, 0
2057247, 0
2057248, 0
2057249, 0
2057250, 0
2057251, 0
2057252, 0
2057253, 0
2057254, 0
2057255, 0
2057256, 0
2057257, 0
2057258, 0
2057259, 0
2057260, 0
2057261, 0
2057262, 0
2057263, 0
2057264, 0
2057265, 0
2057266, 0
2057267, 0
2057268, 0
2057269, 0
2057270, 0
2057271, 0
2057272, 0
2057273, 0
2057274, 0
2057275, 0
2057276, 0
2057277, 0
2057278, 0
2057279, 0
2057280, 0
2057281, 0
2057282, 0
2057283, 0
2057284, 0
2057285, 0
2057286, 0
2057287, 0
2057288, 0
2057289, 0
2057290, 0
2057291, 0
2057292, 0
2057293, 0
2057294, 0
2057295, 0
2057296, 0
2057297, 0
2057298, 0
2057299, 0
2057300, 0
2057301, 0
2057302, 0
2057303, 0
2057304, 0
2057305, 0
2057306, 0
2057307, 0
2057308, 0
2057309, 0
2057310, 0
2057311, 0
2057312, 0
2057313, 0
2057314, 0
2057315, 0
2057316, 0
2057317, 0
2057318, 0
2057319, 2
2057320, 0
2057321, 2
2057322, 0
2057323, 2
2057324, 0
2057325, 0
2057326, 0
2057327, 0
2057328, 0
2057329, 0
2057330, 0
2057331, 0
2057332, 0
2057333, 0
2057334, 0
2057335, 0
2057336, 0
2057337, 0
2057338, 0
2057339, 0
2057340, 0
2057341, 0
2057342, 9
2057343, 0
2057344, 0
2057345, 2
2057346, 0
2057347, 0
2057348, 0
2057349, 0
2057350, 0
2057351, 0
2057352, 0
2057353, 0
2057354, 0
2057355, 8
2057356, 0
2057357, 0
2057358, 0
2057359, 0
2057360, 0
2057361, 0
2057362, 0
2057363, 0
2057364, 0
2057365, 0
2057366, 2
2057367, 0
2057368, 8
2057369, 0
2057370, 0
2057371, 0
2057372, 0
2057373, 0
2057374, 0
2057375, 0
2057376, 0
2057377, 0
2057378, 0
2057379, 0
2057380, 0
2057381, 1
2057382, 0
2057383, 0
2057384, 0
2057385, 0
2057386, 0
2057387, 0
2057388, 0
2057389, 0
2057390, 0
2057391, 0
2057392, 0
2057393, 0
2057394, 0
2057395, 0
2057396, 0
2057397, 0
2057398, 0
2057399, 1
2057400, 0
2057401, 0
2057402, 0
2057403, 0
2057404, 0
2057405, 0
2057406, 0
2057407, 0
2057408, 0
2057409, 0
2057410, 0
2057411, 0
2057412, 0
2057413, 0
2057414, 0
2057415, 0
2057416, 0
2057417, 0
2057418, 0
2057419, 0
2057420, 0
2057421, 0
2057422, 0
2057423, 0
2057424, 0
2057425, 0
2057426, 0
2057427, 0
2057428, 0
2057429, 0
2057430, 0
2057431, 0
2057432, 0
2057433, 0
2057434, 0
2057435, 0
2057436, 0
2057437, 0
2057438, 0
2057439, 0
2057440, 0
2057441, 0
2057442, 0
2057443, 0
2057444, 0
2057445, 0
2057446, 0
2057447, 0
2057448, 0
2057449, 0
2057450, 1
2057451, 0
2057452, 0
2057453, 0
2057454, 0
2057455, 0
2057456, 0
2057457, 0
2057458, 0
2057459, 0
2057460, 0
2057461, 0
2057462, 0
2057463, 0
2057464, 0
2057465, 0
2057466, 2
2057467, 0
2057468, 0
2057469, 0
2057470, 0
2057471, 0
2057472, 0
2057473, 0
2057474, 0
2057475, 0
2057476, 0
2057477, 0
2057478, 0
2057479, 0
2057480, 0
2057481, 0
2057482, 0
2057483, 0
2057484, 0
2057485, 0
2057486, 0
2057487, 0
2057488, 0
2057489, 0
2057490, 0
2057491, 0
2057492, 0
2057493, 0
2057494, 0
2057495, 0
2057496, 0
2057497, 0
2057498, 0
2057499, 0
2057500, 0
2057501, 0
2057502, 0
2057503, 0
2057504, 0
2057505, 3
2057506, 0
2057507, 0
2057508, 0
2057509, 0
2057510, 0
2057511, 0
2057512, 0
2057513, 0
2057514, 0
2057515, 0
2057516, 0
2057517, 0
2057518, 0
2057519, 0
2057520, 0
2057521, 0
2057522, 0
2057523, 0
2057524, 0
2057525, 0
2057526, 1
2057527, 0
2057528, 0
2057529, 0
2057530, 0
2057531, 0
2057532, 0
2057533, 0
2057534, 0
2057535, 0
2057536, 0
2057537, 0
2057538, 0
2057539, 0
2057540, 0
2057541, 0
2057542, 0
2057543, 0
2057544, 0
2057545, 0
2057546, 0
2057547, 0
2057548, 0
2057549, 0
2057550, 1
2057551, 0
2057552, 0
2057553, 0
2057554, 0
2057555, 0
2057556, 0
2057557, 0
2057558, 0
2057559, 0
2057560, 0
2057561, 0
2057562, 0
2057563, 0
2057564, 3
2057565, 0
2057566, 0
2057567, 0
2057568, 0
2057569, 0
2057570, 0
2057571, 0
2057572, 0
2057573, 0
2057574, 0
2057575, 0
2057576, 0
2057577, 0
2057578, 0
2057579, 0
2057580, 0
2057581, 0
2057582, 0
2057583, 0
2057584, 0
2057585, 0
2057586, 0
2057587, 0
2057588, 0
2057589, 0
2057590, 3
2057591, 0
2057592, 0
2057593, 0
2057594, 0
2057595, 0
2057596, 0
2057597, 0
2057598, 0
2057599, 0
2057600, 0
2057601, 0
2057602, 0
2057603, 0
2057604, 0
2057605, 0
2057606, 0
2057607, 0
2057608, 0
2057609, 0
2057610, 0
2057611, 0
2057612, 0
2057613, 0
2057614, 0
2057615, 0
2057616, 0
2057617, 0
2057618, 0
2057619, 0
2057620, 0
2057621, 0
2057622, 0
2057623, 0
2057624, 0
2057625, 3
2057626, 0
2057627, 0
2057628, 0
2057629, 0
2057630, 0
2057631, 0
2057632, 0
2057633, 0
2057634, 0
2057635, 0
2057636, 0
2057637, 0
2057638, 0
2057639, 2
2057640, 0
2057641, 0
2057642, 0
2057643, 2
2057644, 0
2057645, 0
2057646, 0
2057647, 0
2057648, 0
2057649, 0
2057650, 0
2057651, 0
2057652, 0
2057653, 0
2057654, 1
2057655, 0
2057656, 0
2057657, 0
2057658, 0
2057659, 0
2057660, 0
2057661, 0
2057662, 0
2057663, 0
2057664, 0
2057665, 0
2057666, 0
2057667, 0
2057668, 0
2057669, 0
2057670, 0
2057671, 0
2057672, 0
2057673, 0
2057674, 0
2057675, 0
2057676, 0
2057677, 0
2057678, 0
2057679, 0
2057680, 0
2057681, 0
2057682, 0
2057683, 0
2057684, 0
2057685, 0
2057686, 0
2057687, 1
2057688, 0
2057689, 0
2057690, 0
2057691, 0
2057692, 0
2057693, 0
2057694, 0
2057695, 0
2057696, 1
2057697, 0
2057698, 0
2057699, 0
2057700, 0
2057701, 0
2057702, 0
2057703, 0
2057704, 0
2057705, 0
2057706, 0
2057707, 0
2057708, 0
2057709, 2
2057710, 0
2057711, 0
2057712, 0
2057713, 0
2057714, 0
2057715, 0
2057716, 0
2057717, 0
2057718, 0
2057719, 0
2057720, 0
2057721, 0
2057722, 0
2057723, 0
2057724, 0
2057725, 0
2057726, 0
2057727, 0
2057728, 0
2057729, 0
2057730, 0
2057731, 0
2057732, 0
2057733, 0
2057734, 0
2057735, 0
2057736, 0
2057737, 0
2057738, 0
2057739, 1
2057740, 0
2057741, 0
2057742, 0
2057743, 0
2057744, 0
2057745, 0
2057746, 0
2057747, 0
2057748, 0
2057749, 0
2057750, 0
2057751, 0
2057752, 0
2057753, 0
2057754, 0
2057755, 1
2057756, 0
2057757, 0
2057758, 0
2057759, 0
2057760, 0
2057761, 0
2057762, 0
2057763, 0
2057764, 0
2057765, 0
2057766, 0
2057767, 0
2057768, 0
2057769, 0
2057770, 0
2057771, 0
2057772, 0
2057773, 0
2057774, 0
2057775, 0
2057776, 0
2057777, 0
2057778, 0
2057779, 0
2057780, 0
2057781, 0
2057782, 0
2057783, 1
2057784, 0
2057785, 0
2057786, 0
2057787, 0
2057788, 0
2057789, 0
2057790, 0
2057791, 0
2057792, 0
2057793, 0
2057794, 0
2057795, 1
2057796, 0
2057797, 0
2057798, 0
2057799, 0
2057800, 0
2057801, 0
2057802, 0
2057803, 0
2057804, 0
2057805, 0
2057806, 0
2057807, 0
2057808, 0
2057809, 0
2057810, 0
2057811, 0
2057812, 0
2057813, 0
2057814, 0
2057815, 0
2057816, 0
2057817, 0
2057818, 0
2057819, 0
2057820, 0
2057821, 0
2057822, 0
2057823, 0
2057824, 0
2057825, 0
2057826, 0
2057827, 0
2057828, 0
2057829, 0
2057830, 0
2057831, 0
2057832, 0
2057833, 0
2057834, 0
2057835, 0
2057836, 0
2057837, 0
2057838, 0
2057839, 0
2057840, 0
2057841, 0
2057842, 0
2057843, 0
2057844, 0
2057845, 0
2057846, 0
2057847, 1
2057848, 0
2057849, 0
2057850, 0
2057851, 0
2057852, 0
2057853, 0
2057854, 0
2057855, 0
2057856, 0
2057857, 0
2057858, 1
2057859, 0
2057860, 0
2057861, 0
2057862, 0
2057863, 0
2057864, 0
2057865, 0
2057866, 0
2057867, 0
2057868, 0
2057869, 0
2057870, 0
2057871, 1
2057872, 0
2057873, 0
2057874, 0
2057875, 0
2057876, 0
2057877, 0
2057878, 1
2057879, 1
2057880, 0
2057881, 0
2057882, 0
2057883, 0
2057884, 0
2057885, 0
2057886, 0
2057887, 0
2057888, 1
2057889, 0
2057890, 0
2057891, 0
2057892, 0
2057893, 1
2057894, 0
2057895, 0
2057896, 0
2057897, 0
2057898, 0
2057899, 0
2057900, 0
2057901, 0
2057902, 0
2057903, 0
2057904, 0
2057905, 0
2057906, 0
2057907, 0
2057908, 0
2057909, 0
2057910, 0
2057911, 0
2057912, 0
2057913, 0
2057914, 0
2057915, 0
2057916, 0
2057917, 0
2057918, 0
2057919, 0
2057920, 0
2057921, 0
2057922, 0
2057923, 0
2057924, 0
2057925, 0
2057926, 0
2057927, 0
2057928, 0
2057929, 0
2057930, 0
2057931, 0
2057932, 1
2057933, 0
2057934, 0
2057935, 0
2057936, 0
2057937, 0
2057938, 0
2057939, 0
2057940, 0
2057941, 0
2057942, 0
