2063364, 0
2063365, 0
2063366, 0
2063367, 0
2063368, 0
2063369, 1
2063370, 0
2063371, 0
2063372, 0
2063373, 0
2063374, 0
2063375, 0
2063376, 0
2063377, 1
2063378, 0
2063379, 0
2063380, 0
2063381, 0
2063382, 0
2063383, 0
2063384, 0
2063385, 0
2063386, 0
2063387, 0
2063388, 0
2063389, 0
2063390, 0
2063391, 0
2063392, 0
2063393, 0
2063394, 0
2063395, 0
2063396, 0
2063397, 0
2063398, 0
2063399, 0
2063400, 0
2063401, 0
2063402, 0
2063403, 0
2063404, 0
2063405, 0
2063406, 0
2063407, 0
2063408, 0
2063409, 0
2063410, 0
2063411, 0
2063412, 0
2063413, 0
2063414, 0
2063415, 0
2063416, 0
2063417, 0
2063418, 2
2063419, 0
2063420, 0
2063421, 0
2063422, 0
2063423, 1
2063424, 0
2063425, 0
2063426, 0
2063427, 0
2063428, 0
2063429, 0
2063430, 0
2063431, 0
2063432, 0
2063433, 0
2063434, 0
2063435, 0
2063436, 0
2063437, 0
2063438, 1
2063439, 0
2063440, 0
2063441, 0
2063442, 0
2063443, 0
2063444, 0
2063445, 0
2063446, 0
2063447, 0
2063448, 0
2063449, 0
2063450, 0
2063451, 1
2063452, 1
2063453, 3
2063454, 2
2063455, 4
2063456, 0
2063457, 1
2063458, 2
2063459, 0
2063460, 3
2063461, 1
2063462, 2
2063463, 0
