2055943, 0
2055944, 3
2055945, 0
2055946, 0
2055947, 0
2055948, 0
2055949, 0
2055950, 0
2055951, 0
2055952, 0
2055953, 0
2055954, 0
2055955, 0
2055956, 0
2055957, 0
2055958, 0
2055959, 0
2055960, 0
2055961, 0
2055962, 0
2055963, 0
2055964, 0
2055965, 0
2055966, 0
2055967, 0
2055968, 0
2055969, 0
2055970, 0
2055971, 0
2055972, 0
2055973, 0
2055974, 0
2055975, 0
2055976, 0
2055977, 0
2055978, 2
2055979, 0
2055980, 0
2055981, 0
2055982, 0
2055983, 1
2055984, 0
2055985, 0
2055986, 0
2055987, 0
2055988, 0
2055989, 0
2055990, 0
2055991, 0
2055992, 0
2055993, 0
2055994, 3
2055995, 0
2055996, 0
2055997, 0
2055998, 0
2055999, 0
2056000, 0
2056001, 0
2056002, 0
2056003, 3
2056004, 0
2056005, 0
2056006, 0
2056007, 0
2056008, 0
2056009, 0
2056010, 0
2056011, 0
2056012, 0
2056013, 0
2056014, 3
2056015, 0
2056016, 0
2056017, 0
2056018, 0
2056019, 2
2056020, 0
2056021, 0
2056022, 2
2056023, 0
2056024, 0
2056025, 0
2056026, 0
2056027, 0
2056028, 0
2056029, 0
2056030, 0
2056031, 0
2056032, 0
2056033, 0
2056034, 0
2056035, 0
2056036, 0
2056037, 0
2056038, 0
2056039, 0
2056040, 0
2056041, 0
2056042, 2
2056043, 0
2056044, 0
2056045, 0
2056046, 0
2056047, 0
2056048, 0
2056049, 0
2056050, 0
2056051, 2
2056052, 2
2056053, 0
2056054, 2
2056055, 0
2056056, 0
2056057, 0
2056058, 0
2056059, 0
2056060, 0
2056061, 0
2056062, 0
2056063, 0
2056064, 0
2056065, 0
2056066, 0
2056067, 0
2056068, 0
2056069, 0
2056070, 0
2056071, 0
2056072, 0
2056073, 0
2056074, 0
2056075, 0
2056076, 2
2056077, 0
2056078, 0
2056079, 0
2056080, 0
2056081, 0
2056082, 0
2056083, 0
2056084, 0
2056085, 0
2056086, 0
2056087, 0
2056088, 0
2056089, 0
2056090, 0
2056091, 0
2056092, 0
2056093, 0
2056094, 0
2056095, 0
2056096, 0
2056097, 0
2056098, 1
2056099, 0
2056100, 0
2056101, 0
2056102, 0
2056103, 0
2056104, 0
2056105, 0
2056106, 0
2056107, 0
2056108, 0
2056109, 0
2056110, 0
2056111, 0
2056112, 0
2056113, 0
2056114, 1
2056115, 0
2056116, 1
2056117, 0
2056118, 0
2056119, 0
2056120, 0
2056121, 0
2056122, 0
2056123, 0
2056124, 0
2056125, 0
2056126, 0
2056127, 0
2056128, 0
2056129, 0
2056130, 0
2056131, 0
2056132, 0
2056133, 0
2056134, 0
2056135, 0
2056136, 0
2056137, 0
2056138, 0
2056139, 0
2056140, 0
2056141, 0
2056142, 0
2056143, 0
2056144, 0
2056145, 0
2056146, 0
2056147, 0
2056148, 0
2056149, 0
2056150, 0
2056151, 0
2056152, 0
2056153, 0
2056154, 0
2056155, 0
2056156, 0
2056157, 0
2056158, 0
2056159, 0
2056160, 0
2056161, 0
2056162, 0
2056163, 0
2056164, 0
2056165, 0
2056166, 0
2056167, 0
2056168, 0
2056169, 0
2056170, 0
2056171, 0
2056172, 0
2056173, 0
2056174, 0
2056175, 0
2056176, 0
2056177, 0
2056178, 0
2056179, 0
2056180, 0
2056181, 0
2056182, 0
2056183, 0
2056184, 0
2056185, 0
2056186, 0
2056187, 0
2056188, 0
2056189, 0
2056190, 0
2056191, 0
2056192, 0
2056193, 0
2056194, 0
2056195, 0
2056196, 0
2056197, 0
2056198, 0
2056199, 0
2056200, 0
2056201, 0
2056202, 1
2056203, 0
2056204, 0
2056205, 0
2056206, 0
2056207, 0
2056208, 0
2056209, 0
2056210, 0
2056211, 0
2056212, 0
2056213, 0
2056214, 1
2056215, 0
2056216, 0
2056217, 0
2056218, 0
2056219, 0
2056220, 0
2056221, 0
2056222, 1
2056223, 0
2056224, 0
2056225, 0
2056226, 1
2056227, 0
2056228, 0
2056229, 0
2056230, 0
2056231, 0
2056232, 0
2056233, 1
2056234, 0
2056235, 0
2056236, 1
2056237, 0
2056238, 0
2056239, 0
2056240, 1
2056241, 0
2056242, 0
2056243, 0
2056244, 1
2056245, 1
2056246, 0
2056247, 0
2056248, 0
2056249, 1
2056250, 0
2056251, 0
2056252, 0
2056253, 2
2056254, 0
2056255, 0
2056256, 1
2056257, 0
2056258, 0
2056259, 0
2056260, 0
2056261, 0
2056262, 0
2056263, 0
2056264, 0
2056265, 0
2056266, 0
2056267, 0
2056268, 0
2056269, 0
2056270, 0
2056271, 0
2056272, 0
2056273, 0
2056274, 0
2056275, 0
2056276, 0
2056277, 0
2056278, 0
2056279, 0
2056280, 0
2056281, 0
2056282, 3
2056283, 0
2056284, 2
2056285, 0
2056286, 0
2056287, 0
2056288, 0
2056289, 0
2056290, 0
2056291, 0
2056292, 0
2056293, 0
2056294, 0
2056295, 0
2056296, 1
2056297, 0
2056298, 0
2056299, 0
2056300, 0
2056301, 0
2056302, 0
2056303, 0
2056304, 0
2056305, 0
2056306, 0
2056307, 0
2056308, 0
2056309, 0
2056310, 0
2056311, 0
2056312, 0
2056313, 0
2056314, 0
2056315, 0
2056316, 0
2056317, 0
2056318, 0
2056319, 0
2056320, 0
2056321, 0
2056322, 0
2056323, 0
2056324, 0
2056325, 0
2056326, 0
2056327, 0
2056328, 0
2056329, 0
2056330, 0
2056331, 0
2056332, 0
2056333, 0
2056334, 0
2056335, 0
2056336, 0
2056337, 0
2056338, 0
2056339, 2
2056340, 0
2056341, 2
2056342, 0
2056343, 0
2056344, 0
2056345, 0
2056346, 0
2056347, 0
2056348, 0
2056349, 0
2056350, 0
2056351, 0
2056352, 0
2056353, 0
2056354, 0
2056355, 0
2056356, 0
2056357, 0
2056358, 0
2056359, 0
2056360, 0
2056361, 0
2056362, 0
2056363, 0
2056364, 0
2056365, 0
2056366, 0
2056367, 0
2056368, 0
2056369, 0
2056370, 0
2056371, 3
2056372, 0
2056373, 0
2056374, 0
2056375, 0
2056376, 0
2056377, 0
2056378, 0
2056379, 0
2056380, 0
2056381, 0
2056382, 4
2056383, 0
2056384, 0
2056385, 0
2056386, 0
2056387, 0
2056388, 0
2056389, 0
2056390, 0
2056391, 0
2056392, 0
2056393, 0
2056394, 0
2056395, 0
2056396, 0
2056397, 0
2056398, 0
2056399, 0
2056400, 0
2056401, 0
2056402, 0
2056403, 0
2056404, 0
2056405, 0
2056406, 0
2056407, 0
2056408, 0
2056409, 0
2056410, 5
2056411, 0
2056412, 0
2056413, 0
2056414, 1
2056415, 0
2056416, 0
2056417, 0
2056418, 1
2056419, 0
2056420, 0
2056421, 0
2056422, 0
2056423, 0
2056424, 0
2056425, 0
2056426, 0
2056427, 0
2056428, 0
2056429, 0
2056430, 0
2056431, 0
2056432, 0
2056433, 1
2056434, 1
2056435, 0
2056436, 0
2056437, 0
2056438, 0
2056439, 0
2056440, 0
2056441, 3
2056442, 0
2056443, 0
2056444, 0
2056445, 2
2056446, 0
2056447, 0
2056448, 0
2056449, 0
2056450, 0
2056451, 0
2056452, 0
2056453, 0
2056454, 0
2056455, 0
2056456, 0
2056457, 0
2056458, 0
2056459, 0
2056460, 0
2056461, 0
2056462, 0
2056463, 0
2056464, 0
2056465, 0
2056466, 0
2056467, 0
2056468, 0
2056469, 0
2056470, 0
2056471, 1
2056472, 0
2056473, 0
2056474, 0
2056475, 0
2056476, 1
2056477, 0
2056478, 0
2056479, 1
2056480, 0
2056481, 0
2056482, 0
2056483, 0
2056484, 0
2056485, 0
2056486, 0
2056487, 0
2056488, 1
2056489, 0
2056490, 1
2056491, 0
2056492, 0
2056493, 0
2056494, 0
2056495, 0
2056496, 0
2056497, 0
2056498, 0
2056499, 0
2056500, 1
2056501, 0
2056502, 1
2056503, 0
2056504, 0
2056505, 0
2056506, 0
2056507, 0
2056508, 0
2056509, 0
2056510, 0
2056511, 0
2056512, 0
2056513, 0
2056514, 0
2056515, 0
2056516, 0
2056517, 0
2056518, 0
2056519, 0
2056520, 0
2056521, 0
2056522, 0
2056523, 0
2056524, 0
2056525, 0
2056526, 0
2056527, 0
2056528, 0
2056529, 0
2056530, 0
2056531, 0
2056532, 0
2056533, 0
2056534, 0
2056535, 0
2056536, 0
2056537, 0
2056538, 0
2056539, 0
2056540, 0
2056541, 0
2056542, 0
2056543, 0
2056544, 0
2056545, 0
2056546, 0
2056547, 0
2056548, 0
2056549, 0
2056550, 0
2056551, 0
2056552, 0
2056553, 0
2056554, 0
2056555, 0
2056556, 0
2056557, 0
2056558, 0
2056559, 0
2056560, 0
2056561, 0
2056562, 0
2056563, 0
2056564, 0
2056565, 0
2056566, 0
2056567, 0
2056568, 0
2056569, 0
2056570, 0
2056571, 0
2056572, 0
2056573, 0
2056574, 0
2056575, 0
2056576, 0
2056577, 0
2056578, 0
2056579, 0
2056580, 0
2056581, 0
2056582, 0
2056583, 0
2056584, 0
2056585, 0
2056586, 0
2056587, 0
2056588, 0
2056589, 0
2056590, 0
2056591, 0
2056592, 0
2056593, 0
2056594, 0
2056595, 0
2056596, 0
2056597, 0
2056598, 0
2056599, 0
2056600, 0
2056601, 0
2056602, 1
2056603, 0
2056604, 1
2056605, 0
2056606, 0
2056607, 0
2056608, 0
2056609, 0
2056610, 0
2056611, 0
2056612, 0
2056613, 0
2056614, 0
2056615, 0
2056616, 0
2056617, 0
2056618, 0
2056619, 0
2056620, 0
2056621, 0
2056622, 0
2056623, 0
2056624, 0
2056625, 0
2056626, 0
2056627, 0
2056628, 0
2056629, 0
2056630, 0
2056631, 0
2056632, 0
2056633, 0
2056634, 0
2056635, 0
2056636, 0
2056637, 0
2056638, 0
2056639, 0
2056640, 0
2056641, 0
2056642, 0
2056643, 0
2056644, 0
2056645, 0
2056646, 0
2056647, 0
2056648, 0
2056649, 0
2056650, 1
2056651, 0
2056652, 0
2056653, 0
2056654, 0
2056655, 0
2056656, 0
2056657, 0
2056658, 1
2056659, 0
2056660, 0
2056661, 0
2056662, 0
2056663, 0
2056664, 0
2056665, 0
2056666, 0
2056667, 0
2056668, 0
2056669, 0
2056670, 0
2056671, 0
2056672, 0
2056673, 0
2056674, 1
2056675, 0
2056676, 2
2056677, 0
2056678, 0
2056679, 0
2056680, 0
2056681, 0
2056682, 0
2056683, 0
2056684, 0
2056685, 0
2056686, 0
2056687, 0
2056688, 0
2056689, 0
2056690, 0
2056691, 0
2056692, 0
2056693, 0
2056694, 0
2056695, 0
2056696, 0
2056697, 0
2056698, 1
2056699, 0
2056700, 0
2056701, 0
2056702, 0
2056703, 0
2056704, 0
2056705, 0
2056706, 0
2056707, 0
2056708, 0
2056709, 0
2056710, 0
2056711, 0
2056712, 0
2056713, 0
2056714, 0
2056715, 0
2056716, 0
2056717, 0
2056718, 0
2056719, 0
2056720, 0
2056721, 0
2056722, 0
2056723, 0
2056724, 0
2056725, 0
2056726, 0
2056727, 0
2056728, 0
2056729, 0
2056730, 0
2056731, 0
2056732, 0
2056733, 0
2056734, 0
2056735, 0
2056736, 0
2056737, 0
2056738, 0
2056739, 0
2056740, 0
2056741, 0
2056742, 0
2056743, 0
2056744, 0
2056745, 0
2056746, 3
2056747, 0
2056748, 0
2056749, 3
2056750, 0
2056751, 0
2056752, 0
2056753, 3
2056754, 0
2056755, 0
2056756, 0
2056757, 0
2056758, 0
2056759, 3
2056760, 2
2056761, 3
2056762, 0
2056763, 3
2056764, 0
2056765, 0
2056766, 0
2056767, 3
2056768, 0
2056769, 0
2056770, 0
2056771, 0
2056772, 0
2056773, 0
2056774, 0
2056775, 0
2056776, 0
2056777, 0
2056778, 3
2056779, 0
2056780, 3
2056781, 0
2056782, 4
2056783, 0
2056784, 0
2056785, 0
2056786, 4
2056787, 0
2056788, 0
2056789, 1
2056790, 0
2056791, 0
2056792, 0
2056793, 0
2056794, 0
2056795, 0
2056796, 0
2056797, 0
2056798, 0
2056799, 5
2056800, 1
2056801, 0
2056802, 0
2056803, 0
2056804, 0
2056805, 0
2056806, 0
2056807, 0
2056808, 0
2056809, 0
2056810, 0
2056811, 0
2056812, 0
2056813, 0
2056814, 0
2056815, 0
2056816, 0
2056817, 0
2056818, 2
2056819, 0
2056820, 0
2056821, 0
2056822, 0
2056823, 0
2056824, 0
2056825, 0
2056826, 0
2056827, 0
2056828, 0
2056829, 0
2056830, 0
2056831, 0
2056832, 0
2056833, 0
2056834, 0
2056835, 0
2056836, 0
2056837, 0
2056838, 0
2056839, 0
2056840, 0
2056841, 0
2056842, 1
2056843, 0
2056844, 0
2056845, 0
2056846, 0
2056847, 0
2056848, 0
2056849, 0
2056850, 0
2056851, 0
2056852, 0
2056853, 0
2056854, 0
2056855, 0
2056856, 0
2056857, 0
2056858, 0
2056859, 0
2056860, 1
2056861, 2
2056862, 0
2056863, 0
2056864, 0
2056865, 0
2056866, 3
2056867, 0
2056868, 0
2056869, 0
2056870, 0
2056871, 0
2056872, 0
2056873, 0
2056874, 3
2056875, 0
2056876, 0
2056877, 0
2056878, 0
2056879, 3
2056880, 0
2056881, 3
2056882, 0
2056883, 0
2056884, 0
2056885, 0
2056886, 0
2056887, 0
2056888, 3
2056889, 0
2056890, 0
2056891, 0
2056892, 3
2056893, 0
2056894, 0
2056895, 0
2056896, 0
2056897, 0
2056898, 0
2056899, 0
2056900, 0
2056901, 0
2056902, 0
2056903, 0
2056904, 0
2056905, 0
2056906, 0
2056907, 0
2056908, 0
2056909, 0
2056910, 0
2056911, 0
2056912, 0
2056913, 0
2056914, 0
2056915, 0
2056916, 0
2056917, 0
2056918, 0
2056919, 0
2056920, 0
2056921, 0
2056922, 0
2056923, 0
2056924, 0
2056925, 0
2056926, 0
2056927, 0
2056928, 0
2056929, 0
2056930, 0
2056931, 0
2056932, 0
2056933, 0
2056934, 0
2056935, 0
2056936, 0
2056937, 0
2056938, 0
2056939, 0
2056940, 0
2056941, 0
2056942, 0
