2063264, 0
2063265, 1
2063266, 0
2063267, 0
2063268, 0
2063269, 0
2063270, 0
2063271, 0
2063272, 0
2063273, 0
2063274, 0
2063275, 0
2063276, 0
2063277, 0
2063278, 0
2063279, 0
2063280, 0
2063281, 0
2063282, 0
2063283, 0
2063284, 0
2063285, 0
2063286, 0
2063287, 0
2063288, 0
2063289, 0
2063290, 0
2063291, 0
2063292, 0
2063293, 0
2063294, 0
2063295, 0
2063296, 0
2063297, 0
2063298, 0
2063299, 0
2063300, 0
2063301, 0
2063302, 0
2063303, 0
2063304, 0
2063305, 1
2063306, 0
2063307, 0
2063308, 0
2063309, 1
2063310, 4
2063311, 0
2063312, 0
2063313, 0
2063314, 0
2063315, 0
2063316, 0
2063317, 0
2063318, 0
2063319, 0
2063320, 1
2063321, 0
2063322, 0
2063323, 1
2063324, 0
2063325, 0
2063326, 1
2063327, 0
2063328, 1
2063329, 0
2063330, 0
2063331, 0
2063332, 0
2063333, 0
2063334, 0
2063335, 0
2063336, 0
2063337, 0
2063338, 0
2063339, 1
2063340, 0
2063341, 0
2063342, 0
2063343, 0
2063344, 0
2063345, 0
2063346, 1
2063347, 0
2063348, 0
2063349, 0
2063350, 0
2063351, 0
2063352, 0
2063353, 0
2063354, 0
2063355, 0
2063356, 5
2063357, 0
2063358, 0
2063359, 0
2063360, 0
2063361, 0
2063362, 0
2063363, 0
